2semestre/LSD/Aula 3/Parte 1/simulation/qsim/AdderDemo.msim.vcd
$comment
	File created using the following command:
		vcd file AdderDemo.msim.vcd -direction
$end
$date
	Fri Mar 13 12:16:38 2020
$end
$version
	ModelSim Version 10.5b
$end
$timescale
	1ps
$end

$scope module adder4_vhd_vec_tst $end
$var wire 1 ! a [3] $end
$var wire 1 " a [2] $end
$var wire 1 # a [1] $end
$var wire 1 $ a [0] $end
$var wire 1 % b [3] $end
$var wire 1 & b [2] $end
$var wire 1 ' b [1] $end
$var wire 1 ( b [0] $end
$var wire 1 ) cin $end
$var wire 1 * cout $end
$var wire 1 + s [3] $end
$var wire 1 , s [2] $end
$var wire 1 - s [1] $end
$var wire 1 . s [0] $end

$scope module i1 $end
$var wire 1 / gnd $end
$var wire 1 0 vcc $end
$var wire 1 1 unknown $end
$var wire 1 2 devoe $end
$var wire 1 3 devclrn $end
$var wire 1 4 devpor $end
$var wire 1 5 ww_devoe $end
$var wire 1 6 ww_devclrn $end
$var wire 1 7 ww_devpor $end
$var wire 1 8 ww_a [3] $end
$var wire 1 9 ww_a [2] $end
$var wire 1 : ww_a [1] $end
$var wire 1 ; ww_a [0] $end
$var wire 1 < ww_b [3] $end
$var wire 1 = ww_b [2] $end
$var wire 1 > ww_b [1] $end
$var wire 1 ? ww_b [0] $end
$var wire 1 @ ww_cin $end
$var wire 1 A ww_s [3] $end
$var wire 1 B ww_s [2] $end
$var wire 1 C ww_s [1] $end
$var wire 1 D ww_s [0] $end
$var wire 1 E ww_cout $end
$var wire 1 F \s[0]~output_o\ $end
$var wire 1 G \s[1]~output_o\ $end
$var wire 1 H \s[2]~output_o\ $end
$var wire 1 I \s[3]~output_o\ $end
$var wire 1 J \cout~output_o\ $end
$var wire 1 K \b[0]~input_o\ $end
$var wire 1 L \cin~input_o\ $end
$var wire 1 M \a[0]~input_o\ $end
$var wire 1 N \bit0|s~0_combout\ $end
$var wire 1 O \b[1]~input_o\ $end
$var wire 1 P \a[1]~input_o\ $end
$var wire 1 Q \bit0|cout~0_combout\ $end
$var wire 1 R \bit1|s~combout\ $end
$var wire 1 S \a[2]~input_o\ $end
$var wire 1 T \b[2]~input_o\ $end
$var wire 1 U \bit1|cout~0_combout\ $end
$var wire 1 V \bit2|s~combout\ $end
$var wire 1 W \b[3]~input_o\ $end
$var wire 1 X \bit2|cout~0_combout\ $end
$var wire 1 Y \a[3]~input_o\ $end
$var wire 1 Z \bit3|s~combout\ $end
$var wire 1 [ \bit3|cout~0_combout\ $end
$upscope $end
$upscope $end
$enddefinitions $end
#0
$dumpvars
1)
1*
0/
10
x1
12
13
14
15
16
17
1@
1E
0F
0G
1H
0I
1J
0K
1L
1M
0N
1O
0P
1Q
0R
1S
1T
1U
1V
1W
1X
0Y
0Z
1[
0!
1"
0#
1$
1%
1&
1'
0(
0+
1,
0-
0.
08
19
0:
1;
1<
1=
1>
0?
0A
1B
0C
0D
$end
#35000
0%
0&
0=
0<
0W
0T
0V
1Z
0[
0J
1I
0H
0E
1A
0B
0*
0,
1+
#40000
1!
18
1Y
0Z
1[
1J
0I
1E
0A
1*
0+
#70000
1(
0)
1?
0@
0L
1K
#80000
0!
0"
1#
1:
09
08
0Y
0S
1P
1R
1V
0X
1Z
0[
0Z
0J
1I
1H
1G
0E
1A
1B
1C
0I
0*
1-
1,
1+
0A
0+
#105000
0(
1)
1%
0'
0?
0>
1<
1@
1L
1W
0O
0K
0R
1Z
1I
0G
1A
0C
0-
1+
#120000
1"
0#
0:
19
1S
0P
1R
0U
0V
1X
0Z
1[
1V
0X
1Z
0[
0H
1G
0B
1C
1H
1J
0I
1-
0,
1B
1E
0A
0J
1I
1,
0+
1*
0E
1A
0*
1+
#140000
1(
0%
1'
1&
1?
1>
1=
0<
0W
1T
1O
1K
1N
0R
1U
0V
1X
0Z
1Z
1V
0I
0H
0G
1F
0A
0B
0C
1D
1H
1I
1.
0-
0,
0+
1B
1A
1,
1+
#160000
0"
1#
0$
0;
1:
09
0S
1P
0M
0N
1R
0V
0H
1G
0F
0B
1C
0D
0.
1-
0,
#175000
1%
0'
0&
0)
0>
0=
1<
0@
0L
1W
0T
0O
0R
1V
0X
0Z
1[
1N
0Q
1R
0U
1Z
0[
0V
1F
1J
0I
1H
0G
1D
1E
0A
1B
0C
0J
1I
1G
1.
0-
1,
0+
1*
0E
1A
1C
0H
0*
1-
1+
0B
0,
#200000
1"
1$
1;
19
1S
1M
0N
1Q
1V
0R
1U
0V
1X
1H
0F
0Z
1[
1B
0D
0G
0.
1,
0C
0H
0-
0B
1J
0I
0,
1E
0A
1*
0+
#210000
0%
1&
1)
0(
0?
1=
0<
1@
1L
0W
1T
0K
1V
1Z
0[
0J
1I
1H
0E
1A
1B
0*
1,
1+
#240000
0"
09
0S
0V
0H
0B
0,
#245000
1%
0)
1<
0@
0L
1W
0Z
1[
1N
0Q
1R
0U
1V
0X
1F
1J
0I
1Z
0[
1D
1E
0A
1G
1.
0+
1*
1C
1H
1-
1B
0J
1I
1,
0E
1A
0*
1+
#280000
0%
1(
1'
0#
1?
1>
0<
0:
0P
0W
1O
1K
0N
1Q
0Z
0R
1U
0V
1X
0I
0F
1Z
0A
0D
0G
0.
0+
0C
0H
0-
0B
1I
0,
1A
1+
#315000
0'
1)
0&
0>
0=
1@
1L
0T
0O
1R
0U
1V
0X
1N
0Z
0V
1F
1H
1G
1D
1B
1C
0H
0I
1.
1-
1,
0B
0A
0,
0+
#320000
1#
0$
0;
1:
1P
0M
0N
0R
1U
1V
0G
0F
0C
0D
1H
0.
0-
1B
1,
#360000
0#
1"
1!
0:
19
18
1Y
1S
0P
1R
0U
0V
1X
1Z
0Z
1[
1V
0X
1Z
0[
1I
0H
1G
1A
0B
1C
1H
1J
0I
1-
0,
1+
1B
1E
0A
0J
1I
1,
0+
1*
0E
1A
0*
1+
#385000
1'
0)
1&
0(
0?
1>
1=
0@
0L
1T
1O
0K
0R
1U
0V
1X
0Q
1R
0U
0Z
1[
1V
0V
0H
0G
0B
0C
1H
1J
0I
1G
0-
0,
1B
1E
0A
1C
0H
1-
1,
0+
1*
0B
0,
#400000
1#
0"
1$
1;
1:
09
0S
1P
1M
1N
0R
1U
1V
0X
1Z
0[
0V
1X
0Z
1[
1H
0G
1F
1B
0C
1D
0H
0J
1I
1.
0-
1,
0B
0E
1A
1J
0I
0,
1+
0*
1E
0A
1*
0+
#420000
0'
1%
0>
1<
1W
0O
1R
0U
1Z
1V
0X
0Z
1I
1G
1A
1C
1H
1-
1+
1B
0I
1,
0A
0+
#440000
0#
1"
0$
0;
0:
19
1S
0P
0M
0N
0R
0V
1X
1Z
0H
0G
0F
0B
0C
0D
1I
0.
0-
0,
1A
1+
#455000
0%
1)
0&
0=
0<
1@
1L
0W
0T
1V
0X
0Z
1N
1Z
0[
1F
0I
1H
1D
0A
1B
0J
1I
1.
1,
0+
0E
1A
0*
1+
#480000
1$
1;
1M
0N
1Q
1R
0F
0D
1G
0.
1C
1-
#490000
1%
1(
1?
1<
1W
1K
1N
0Z
1[
1J
0I
1F
1E
0A
1D
1*
1.
0+
#525000
0(
0)
1'
0?
1>
0@
0L
1O
0K
0R
1U
0Q
1R
0U
0V
1X
1Z
1V
0X
0G
0Z
0C
0H
1G
0-
0B
1C
1H
1I
1-
0,
1B
1A
0I
1,
1+
0A
0+
#560000
1(
1)
0'
1&
1#
1?
0>
1=
1@
1:
1P
1L
1T
0O
1K
0V
1X
1Q
0R
1U
1Z
1V
0H
0B
1I
0G
0,
1A
0C
1H
0-
1+
1B
1,
#595000
0)
1'
0@
1>
1O
0L
0N
1R
1G
0F
1C
0D
0.
1-
#600000
0$
0;
0M
1N
0Q
0R
1F
1D
0G
1.
0C
0-
#640000
0#
0"
0:
09
0S
0P
1R
0U
0V
1V
0X
0Z
0H
1G
0B
1C
1H
1-
0,
1B
0I
1,
0A
0+
#665000
0&
0=
0T
0V
0H
0B
0,
#680000
1"
19
1S
1V
1H
1B
1,
#700000
0(
0%
0?
0<
0W
0K
0N
1Z
0[
0J
1I
0F
0E
1A
0D
0*
0.
1+
#720000
1$
0!
1;
08
0Y
1M
1N
0Z
0I
1F
0A
1D
1.
0+
#735000
1&
1=
1T
0V
1X
1Z
0H
0B
1I
0,
1A
1+
#760000
1!
0"
1#
1:
09
18
1Y
0S
1P
0R
1U
1V
0X
0Z
1[
1Z
0[
0V
1X
0Z
1[
1J
0I
1H
0G
1E
0A
1B
0C
0H
0J
1I
1*
0-
1,
0+
0B
0E
1A
1J
0I
0,
1+
0*
1E
0A
1*
0+
#770000
1)
1@
1L
0N
1Q
1R
0F
0D
1G
0.
1C
1-
#800000
0!
1"
19
08
0Y
1S
1V
1Z
0[
0J
1I
1H
0E
1A
1B
0*
1,
1+
#805000
1(
0'
1?
0>
0O
1K
1N
0R
0G
1F
0C
1D
1.
0-
#840000
0(
0#
0$
1%
0?
1<
0;
0:
0P
0M
1W
0K
0Z
1[
0Q
1R
0U
0V
0R
1G
1J
0I
1C
1E
0A
0G
0H
1-
0+
1*
0C
0B
0-
0,
#875000
1'
0)
0&
1>
0=
0@
0L
0T
1O
1R
1V
0X
0N
1Z
0[
0F
1H
1G
0D
1B
1C
0J
1I
0.
1-
1,
0E
1A
0*
1+
#880000
1#
1:
1P
0R
1U
0V
1X
0Z
1[
0G
0C
0H
0-
0B
1J
0I
0,
1E
0A
1*
0+
#910000
1)
1&
1(
0%
1@
1?
1=
0<
0W
1T
1K
1L
1Q
1V
1Z
0[
1R
0J
1I
1H
0E
1A
1B
1G
0*
1,
1+
1C
1-
#920000
0#
0"
0:
09
0S
0P
0R
0V
0H
0G
0B
0C
0-
0,
#945000
0(
1%
0?
1<
1W
0K
1N
0Q
0Z
1[
1R
0U
1V
0X
1J
0I
1F
1Z
0[
1E
0A
1D
1G
1*
1.
0+
1C
1H
1-
1B
0J
1I
1,
0E
1A
0*
1+
#960000
1!
18
1Y
0Z
1[
1J
0I
1E
0A
1*
0+
#980000
0&
0=
0T
0V
0H
0B
0,
