2semestre/LSD/Aula 1/Parte 1/GateDemo/simulation/qsim/GateDemo.msim.vcd
$comment
	File created using the following command:
		vcd file GateDemo.msim.vcd -direction
$end
$date
	Mon Feb 17 14:30:00 2020
$end
$version
	ModelSim Version 10.5b
$end
$timescale
	1ps
$end

$scope module GateDemo_vlg_vec_tst $end
$var reg 1 ! SW0 $end
$var reg 1 " SW1 $end
$var wire 1 # LEDR0 $end

$scope module i1 $end
$var wire 1 $ gnd $end
$var wire 1 % vcc $end
$var wire 1 & unknown $end
$var tri1 1 ' devclrn $end
$var tri1 1 ( devpor $end
$var tri1 1 ) devoe $end
$var wire 1 * LEDR0~output_o $end
$var wire 1 + SW1~input_o $end
$var wire 1 , SW0~input_o $end
$var wire 1 - inst~combout $end
$upscope $end
$upscope $end
$enddefinitions $end
#0
$dumpvars
0!
0"
0#
0$
1%
x&
1'
1(
1)
0*
0+
0,
0-
$end
#80000
1!
1,
#160000
0!
0,
#180000
1"
1+
#360000
0"
0+
#400000
1!
1,
#480000
1"
1+
1-
1*
1#
#580000
0!
0,
0-
0*
0#
#660000
0"
0+
#740000
1!
1,
#780000
1"
1+
1-
1*
1#
#900000
0"
0+
0-
0*
0#
#980000
0!
0,
