2semestre/LSD/Aula 2/Parte 2/simulation/qsim/Mux2_1Demo.msim.vcd
$comment
	File created using the following command:
		vcd file Mux2_1Demo.msim.vcd -direction
$end
$date
	Mon Mar 02 14:48:13 2020
$end
$version
	ModelSim Version 10.5b
$end
$timescale
	1ps
$end

$scope module mux2_1_vhd_vec_tst $end
$var wire 1 ! dataIn0 $end
$var wire 1 " dataIn1 $end
$var wire 1 # dataOut0 $end
$var wire 1 $ sel $end

$scope module i1 $end
$var wire 1 % gnd $end
$var wire 1 & vcc $end
$var wire 1 ' unknown $end
$var wire 1 ( devoe $end
$var wire 1 ) devclrn $end
$var wire 1 * devpor $end
$var wire 1 + ww_devoe $end
$var wire 1 , ww_devclrn $end
$var wire 1 - ww_devpor $end
$var wire 1 . ww_sel $end
$var wire 1 / ww_dataIn0 $end
$var wire 1 0 ww_dataIn1 $end
$var wire 1 1 ww_dataOut0 $end
$var wire 1 2 \dataOut0~output_o\ $end
$var wire 1 3 \sel~input_o\ $end
$var wire 1 4 \dataIn1~input_o\ $end
$var wire 1 5 \dataIn0~input_o\ $end
$var wire 1 6 \dataOut0~0_combout\ $end
$upscope $end
$upscope $end
$enddefinitions $end
#0
$dumpvars
0!
0"
0#
0$
0%
1&
x'
1(
1)
1*
1+
1,
1-
0.
0/
00
01
02
03
04
05
06
$end
#40000
1$
1.
13
#100000
1!
1"
1/
10
14
15
16
12
11
1#
#200000
0!
0"
0/
00
04
05
06
02
01
0#
#220000
0$
0.
03
#280000
1!
1/
15
16
12
11
1#
#340000
0!
1$
0/
1.
13
05
06
02
01
0#
#400000
1"
10
14
16
12
11
1#
#460000
0"
00
04
06
02
01
0#
#540000
1!
0$
1/
0.
03
15
16
12
11
1#
#660000
1$
1.
13
06
02
01
0#
#740000
0!
0/
05
#800000
1"
10
14
16
12
11
1#
#940000
0"
00
04
06
02
01
0#
#980000
0$
0.
03
