2semestre/LSD/Aula 6/Parte 3/simulation/qsim/CombShiftUnit_Demo.msim.vcd
$comment
	File created using the following command:
		vcd file CombShiftUnit_Demo.msim.vcd -direction
$end
$date
	Tue May 19 19:47:54 2020
$end
$version
	ModelSim Version 10.5b
$end
$timescale
	1ps
$end

$scope module combshiftunit_vhd_vec_tst $end
$var wire 1 ! dataIn [7] $end
$var wire 1 " dataIn [6] $end
$var wire 1 # dataIn [5] $end
$var wire 1 $ dataIn [4] $end
$var wire 1 % dataIn [3] $end
$var wire 1 & dataIn [2] $end
$var wire 1 ' dataIn [1] $end
$var wire 1 ( dataIn [0] $end
$var wire 1 ) dataOut [7] $end
$var wire 1 * dataOut [6] $end
$var wire 1 + dataOut [5] $end
$var wire 1 , dataOut [4] $end
$var wire 1 - dataOut [3] $end
$var wire 1 . dataOut [2] $end
$var wire 1 / dataOut [1] $end
$var wire 1 0 dataOut [0] $end
$var wire 1 1 dirLeft $end
$var wire 1 2 rotate $end
$var wire 1 3 shAmount [2] $end
$var wire 1 4 shAmount [1] $end
$var wire 1 5 shAmount [0] $end
$var wire 1 6 shArith $end

$scope module i1 $end
$var wire 1 7 gnd $end
$var wire 1 8 vcc $end
$var wire 1 9 unknown $end
$var wire 1 : devoe $end
$var wire 1 ; devclrn $end
$var wire 1 < devpor $end
$var wire 1 = ww_devoe $end
$var wire 1 > ww_devclrn $end
$var wire 1 ? ww_devpor $end
$var wire 1 @ ww_dataIn [7] $end
$var wire 1 A ww_dataIn [6] $end
$var wire 1 B ww_dataIn [5] $end
$var wire 1 C ww_dataIn [4] $end
$var wire 1 D ww_dataIn [3] $end
$var wire 1 E ww_dataIn [2] $end
$var wire 1 F ww_dataIn [1] $end
$var wire 1 G ww_dataIn [0] $end
$var wire 1 H ww_shAmount [2] $end
$var wire 1 I ww_shAmount [1] $end
$var wire 1 J ww_shAmount [0] $end
$var wire 1 K ww_rotate $end
$var wire 1 L ww_dirLeft $end
$var wire 1 M ww_shArith $end
$var wire 1 N ww_dataOut [7] $end
$var wire 1 O ww_dataOut [6] $end
$var wire 1 P ww_dataOut [5] $end
$var wire 1 Q ww_dataOut [4] $end
$var wire 1 R ww_dataOut [3] $end
$var wire 1 S ww_dataOut [2] $end
$var wire 1 T ww_dataOut [1] $end
$var wire 1 U ww_dataOut [0] $end
$var wire 1 V \dataOut[0]~output_o\ $end
$var wire 1 W \dataOut[1]~output_o\ $end
$var wire 1 X \dataOut[2]~output_o\ $end
$var wire 1 Y \dataOut[3]~output_o\ $end
$var wire 1 Z \dataOut[4]~output_o\ $end
$var wire 1 [ \dataOut[5]~output_o\ $end
$var wire 1 \ \dataOut[6]~output_o\ $end
$var wire 1 ] \dataOut[7]~output_o\ $end
$var wire 1 ^ \rotate~input_o\ $end
$var wire 1 _ \shAmount[0]~input_o\ $end
$var wire 1 ` \dataIn[1]~input_o\ $end
$var wire 1 a \dataIn[3]~input_o\ $end
$var wire 1 b \shAmount[1]~input_o\ $end
$var wire 1 c \RotateLeft0~0_combout\ $end
$var wire 1 d \dataIn[2]~input_o\ $end
$var wire 1 e \dataIn[4]~input_o\ $end
$var wire 1 f \RotateLeft0~1_combout\ $end
$var wire 1 g \RotateLeft0~2_combout\ $end
$var wire 1 h \dataIn[7]~input_o\ $end
$var wire 1 i \dataIn[5]~input_o\ $end
$var wire 1 j \ShiftRight0~0_combout\ $end
$var wire 1 k \dataIn[6]~input_o\ $end
$var wire 1 l \RotateRight0~0_combout\ $end
$var wire 1 m \ShiftRight0~1_combout\ $end
$var wire 1 n \dirLeft~input_o\ $end
$var wire 1 o \shArith~input_o\ $end
$var wire 1 p \dataOut~2_combout\ $end
$var wire 1 q \dataOut~3_combout\ $end
$var wire 1 r \ShiftRight0~2_combout\ $end
$var wire 1 s \dataIn[0]~input_o\ $end
$var wire 1 t \RotateRight0~1_combout\ $end
$var wire 1 u \dataOut~4_combout\ $end
$var wire 1 v \RotateLeft0~3_combout\ $end
$var wire 1 w \RotateLeft0~4_combout\ $end
$var wire 1 x \RotateLeft0~5_combout\ $end
$var wire 1 y \ShiftLeft0~0_combout\ $end
$var wire 1 z \dataOut~5_combout\ $end
$var wire 1 { \shAmount[2]~input_o\ $end
$var wire 1 | \dataOut~6_combout\ $end
$var wire 1 } \ShiftLeft0~1_combout\ $end
$var wire 1 ~ \RotateRight0~2_combout\ $end
$var wire 1 !! \RotateRight0~3_combout\ $end
$var wire 1 "! \dataOut~7_combout\ $end
$var wire 1 #! \RotateLeft0~6_combout\ $end
$var wire 1 $! \RotateLeft0~7_combout\ $end
$var wire 1 %! \dataOut~8_combout\ $end
$var wire 1 &! \ShiftRight0~3_combout\ $end
$var wire 1 '! \ShiftRight0~4_combout\ $end
$var wire 1 (! \dataOut~9_combout\ $end
$var wire 1 )! \RotateLeft0~8_combout\ $end
$var wire 1 *! \RotateLeft0~9_combout\ $end
$var wire 1 +! \dataOut~10_combout\ $end
$var wire 1 ,! \dataOut~11_combout\ $end
$var wire 1 -! \dataOut~12_combout\ $end
$var wire 1 .! \dataOut~13_combout\ $end
$var wire 1 /! \dataOut~14_combout\ $end
$var wire 1 0! \ShiftRight0~5_combout\ $end
$var wire 1 1! \ShiftRight0~6_combout\ $end
$var wire 1 2! \dataOut~15_combout\ $end
$var wire 1 3! \ShiftLeft0~2_combout\ $end
$var wire 1 4! \RotateLeft0~10_combout\ $end
$var wire 1 5! \RotateLeft0~11_combout\ $end
$var wire 1 6! \RotateRight0~4_combout\ $end
$var wire 1 7! \RotateRight0~5_combout\ $end
$var wire 1 8! \ShiftRight0~7_combout\ $end
$var wire 1 9! \dataOut~16_combout\ $end
$var wire 1 :! \RotateLeft0~12_combout\ $end
$var wire 1 ;! \RotateLeft0~13_combout\ $end
$var wire 1 <! \dataOut~17_combout\ $end
$var wire 1 =! \RotateRight0~6_combout\ $end
$var wire 1 >! \RotateRight0~7_combout\ $end
$var wire 1 ?! \dataOut~18_combout\ $end
$var wire 1 @! \ShiftLeft0~3_combout\ $end
$var wire 1 A! \dataOut~19_combout\ $end
$var wire 1 B! \RotateLeft0~14_combout\ $end
$var wire 1 C! \RotateLeft0~15_combout\ $end
$var wire 1 D! \RotateLeft0~16_combout\ $end
$var wire 1 E! \RotateRight0~8_combout\ $end
$var wire 1 F! \RotateRight0~9_combout\ $end
$var wire 1 G! \dataOut~20_combout\ $end
$var wire 1 H! \RotateLeft0~17_combout\ $end
$var wire 1 I! \dataOut~21_combout\ $end
$var wire 1 J! \dataOut~22_combout\ $end
$var wire 1 K! \dataOut~23_combout\ $end
$var wire 1 L! \dataOut~24_combout\ $end
$var wire 1 M! \dataOut~25_combout\ $end
$var wire 1 N! \dataOut~26_combout\ $end
$var wire 1 O! \ShiftRight0~8_combout\ $end
$var wire 1 P! \dataOut~27_combout\ $end
$var wire 1 Q! \dataOut~28_combout\ $end
$var wire 1 R! \dataOut~29_combout\ $end
$var wire 1 S! \dataOut~30_combout\ $end
$var wire 1 T! \dataOut~31_combout\ $end
$var wire 1 U! \dataOut~32_combout\ $end
$var wire 1 V! \dataOut~33_combout\ $end
$var wire 1 W! \dataOut~34_combout\ $end
$var wire 1 X! \dataOut~35_combout\ $end
$var wire 1 Y! \dataOut~36_combout\ $end
$var wire 1 Z! \dataOut~37_combout\ $end
$var wire 1 [! \dataOut~38_combout\ $end
$var wire 1 \! \dataOut~39_combout\ $end
$var wire 1 ]! \dataOut~40_combout\ $end
$var wire 1 ^! \dataOut~41_combout\ $end
$var wire 1 _! \dataOut~42_combout\ $end
$var wire 1 `! \dataOut~43_combout\ $end
$var wire 1 a! \dataOut~45_combout\ $end
$var wire 1 b! \dataOut~44_combout\ $end
$upscope $end
$upscope $end
$enddefinitions $end
#0
$dumpvars
01
02
06
07
18
x9
1:
1;
1<
1=
1>
1?
0K
0L
0M
0V
1W
1X
0Y
0Z
1[
0\
0]
0^
1_
1`
0a
0b
0c
0d
1e
1f
0g
1h
0i
0j
0k
1l
0m
0n
0o
1p
0q
1r
1s
1t
0u
0v
1w
1x
0y
0z
0{
0|
1}
0~
0!!
0"!
0#!
1$!
0%!
0&!
0'!
0(!
0)!
1*!
0+!
0,!
1-!
1.!
0/!
00!
01!
12!
03!
14!
15!
16!
17!
18!
19!
0:!
0;!
1<!
0=!
0>!
0?!
1@!
1A!
0B!
0C!
0D!
1E!
1F!
1G!
0H!
1I!
0J!
0K!
0L!
0M!
0N!
1O!
0P!
0Q!
0R!
1S!
0T!
0U!
1V!
1W!
1X!
0Y!
1Z!
0[!
1\!
0]!
0^!
0_!
1`!
0a!
0b!
1!
0"
0#
1$
0%
0&
1'
1(
03
04
15
1@
0A
0B
1C
0D
0E
1F
1G
0H
0I
1J
0N
0O
1P
0Q
0R
1S
1T
0U
0)
0*
1+
0,
0-
1.
1/
00
$end
#10000
1&
0'
0(
14
05
0G
0F
1E
0J
1I
1b
0_
1d
0`
0s
1g
1m
0x
0*!
11!
07!
0F!
1H!
1j
0l
0r
0w
0}
1#!
1'!
10!
04!
06!
1:!
0@!
0A!
0\!
1;!
0E!
05!
1>!
1(!
0.!
0W!
0H!
01!
0m
1!!
1a!
0G!
0Z!
1R!
1b!
0I!
0a!
0X!
02!
1+!
1]!
1^!
0b!
1Z
0[
0X
1Q
0P
0S
0W
1]
0.
1,
0+
0T
1N
0]
1\
0/
1)
0N
1O
1*
0)
#20000
1(
15
1G
1J
1_
1s
1~
0g
1m
0!!
0#!
1*!
11!
14!
0;!
0>!
1B!
1E!
1H!
0O!
1D!
1K!
1a!
0]!
15!
1Z!
0$!
0R!
1!!
0^!
1b!
1L!
1M!
0Z
1[
0Q
1P
1]
0\
0,
1+
1N
0O
1Y
0*
1)
1R
1-
#30000
0(
05
1'
04
13
0G
1F
0J
0I
1H
1{
0b
0_
1`
0s
1g
0m
0*!
01!
17!
1;!
1>!
0E!
0H!
1O!
0j
1l
1r
0t
1w
1}
0~
0'!
13!
04!
16!
08!
0:!
0B!
0-!
1G!
0L!
0S!
0M!
0D!
0K!
0;!
1@!
0(!
07!
1$!
1W!
1H!
1E!
11!
0O!
1m
0!!
1P!
1I!
0a!
0G!
09!
0Z!
0b!
0P!
1G!
1X!
0+!
1\!
0<!
0I!
1]!
1Y!
1I!
0[
0Y
1Z!
1^!
0P
0R
0]
0-
0+
0N
0)
1\
1[
1O
1P
1+
1*
#40000
1(
15
1G
1J
1_
1s
1t
0g
0m
1x
1*!
03!
14!
17!
18!
0>!
1C!
0E!
1F!
0H!
1O!
0G!
1D!
1K!
1a!
19!
1P!
1E!
1G!
1<!
1b!
0I!
1I!
1]
1N
1)
#50000
0(
05
0'
14
0&
1%
0G
0F
0E
1D
0J
1I
1b
0_
1a
0d
0`
0s
1g
1m
0x
0*!
07!
1>!
0F!
1H!
0f
1j
0l
0t
0w
0}
1#!
1'!
1)!
04!
06!
1:!
0@!
0C!
0D!
0\!
05!
1;!
1(!
0W!
0H!
0E!
0O!
0m
1!!
0g
1*!
0a!
0K!
0b!
0P!
0G!
0X!
1+!
0]!
0^!
0Y!
0I!
0Z!
0]
0N
0\
0)
0O
0[
0*
0P
0+
#60000
1(
15
1G
1J
1_
1s
1~
1m
0!!
0#!
0*!
14!
0>!
1B!
1H!
1O!
1P!
1D!
1K!
1a!
15!
0$!
1!!
1b!
1]
1N
1)
#70000
0(
05
1'
04
03
0G
1F
0J
0I
0H
0{
0b
0_
1`
0s
0m
1*!
17!
1>!
0H!
0O!
1f
0j
1l
1w
1}
0~
0'!
0)!
00!
04!
16!
08!
0:!
1=!
0B!
1C!
1-!
1L!
0P!
1S!
1]!
1M!
1E!
05!
0>!
0;!
0(!
07!
1$!
1.!
1W!
1H!
1F!
1m
0!!
1g
0*!
0a!
09!
1Z!
0b!
0Z!
1R!
1a!
12!
1X!
0+!
0]!
0<!
1G!
1^!
1I!
0^!
1b!
1[
1Y
1P
1R
1\
1W
1Z
0[
0]
1-
1+
1O
1T
1Q
0P
0N
1]
0\
1/
1,
0+
1*
0)
1N
0O
0*
1)
#80000
1(
15
1G
1J
1_
1s
1t
1c
0g
0m
1x
1*!
01!
14!
17!
18!
1>!
1@!
0C!
0E!
0H!
1O!
0D!
0K!
0a!
1A!
1\!
19!
15!
1Z!
0R!
1g
1E!
1R!
1<!
0b!
0L!
0M!
0Z
1[
1X
0Q
1P
1S
0]
1Z
1.
0,
1+
0N
1Q
0Y
1,
0)
0R
0-
#90000
0(
05
0'
14
1&
0G
0F
1E
0J
1I
1b
0_
1d
0`
0s
1m
0x
0*!
11!
07!
0>!
1H!
0c
1j
0l
0w
0}
1#!
1'!
1)!
10!
04!
06!
1:!
0=!
0@!
0A!
0\!
0E!
05!
1>!
1*!
1;!
1(!
0.!
0W!
0H!
0F!
0m
1!!
1a!
0Z!
1b!
0a!
0X!
02!
1+!
1Z!
0G!
1]!
1^!
0I!
0b!
0[
0X
0P
0S
1[
0W
1]
0.
0+
1P
0T
1N
0]
1\
0/
1+
1)
0N
1O
1*
0)
#100000
1(
15
1G
1J
1_
1s
1~
0g
1m
0!!
0#!
14!
0>!
1B!
1E!
1H!
1D!
1K!
1a!
15!
0$!
0R!
1!!
1b!
1L!
1M!
0Z
0Q
1]
0,
1N
1Y
1)
1R
1-
#110000
0(
05
1'
04
13
0G
1F
0J
0I
1H
1{
0b
0_
1`
0s
1g
0m
17!
1>!
0E!
0H!
0j
1l
0t
1w
1}
0~
0'!
0)!
13!
04!
16!
08!
0:!
1=!
0B!
1C!
0-!
1G!
0L!
1P!
0S!
0Z!
0]!
0M!
1@!
0*!
0;!
0(!
07!
1$!
1W!
1H!
1E!
0O!
1F!
1m
0!!
1I!
0G!
09!
0P!
1G!
0I!
1X!
0<!
0+!
1\!
0^!
1]!
1Y!
1I!
0Y
0[
1Z!
1^!
0R
0P
0\
0-
0+
0O
0*
1\
1[
1O
1P
1+
1*
#120000
1(
15
1G
1J
1_
1s
1t
1c
0g
0m
1x
1*!
03!
14!
17!
18!
0E!
0H!
1O!
0G!
19!
1P!
1g
1E!
1G!
1<!
0I!
1I!
#130000
0(
05
0'
14
0&
0%
1#
0$
0G
0F
0E
0D
0C
1B
0J
1I
1b
0_
1i
0e
0a
0d
0`
0s
1m
0x
0*!
07!
1H!
0c
0f
1j
0l
0r
0t
0}
1#!
1'!
00!
04!
06!
0@!
0C!
0D!
0K!
0\!
05!
0>!
1(!
0W!
0E!
01!
0O!
0m
1!!
0g
0a!
0b!
0P!
0G!
0X!
1+!
0]!
0^!
0Y!
0I!
0Z!
0]
0N
0\
0)
0O
0[
0*
0P
0+
#140000
1(
15
1G
1J
1_
1s
1~
1m
1x
0!!
0#!
14!
1>!
1B!
0F!
0H!
1D!
1K!
1a!
15!
0$!
1!!
1b!
1]
1N
1)
#150000
0(
05
1'
04
03
0G
1F
0J
0I
0H
0{
0b
0_
1`
0s
0m
0x
17!
0>!
1F!
1H!
1r
1}
0~
1&!
0'!
1)!
04!
16!
08!
0=!
0B!
1-!
1L!
1S!
0a!
0b!
1M!
0D!
0F!
1E!
05!
1*!
0(!
1'!
07!
1$!
1.!
1W!
11!
1a!
1G!
0K!
09!
0L!
1b!
12!
1X!
1(!
0+!
1Z!
0<!
0G!
1I!
0I!
1+!
0M!
1Y
0]
1R
0N
1[
1W
1]
1-
0)
1P
1T
1N
0Y
1/
1+
1)
0R
0-
#160000
1(
15
1G
1J
1_
1s
1t
1m
1x
0!!
0&!
0*!
01!
14!
17!
18!
1;!
1@!
0E!
0H!
1O!
0a!
1A!
1\!
1]!
19!
15!
0Z!
0'!
1E!
0(!
1<!
1^!
0b!
0+!
0[
1X
0P
1S
0]
1\
1.
0+
0N
1O
1*
0)
#170000
0(
05
0'
14
1&
0G
0F
1E
0J
1I
1b
0_
1d
0`
0s
0m
0x
1!!
1*!
11!
07!
0;!
1H!
1f
0r
0}
1#!
1'!
0)!
04!
06!
1=!
0@!
0A!
0\!
1F!
0E!
05!
1(!
0.!
01!
1g
0*!
1a!
0]!
1Z!
0W!
0^!
1b!
0Z!
1R!
0X!
02!
1+!
1G!
1I!
1[
0X
1P
0S
0W
1Z
0[
1]
0\
0.
1+
0T
1Q
0P
1N
0O
0/
1,
0+
0*
1)
#180000
1(
15
1G
1J
1_
1s
1~
0g
1m
1x
0!!
0#!
1*!
14!
1>!
1B!
1E!
0F!
0H!
0O!
0G!
1D!
1K!
0a!
15!
1Z!
0$!
0R!
1!!
0b!
1L!
0I!
1M!
0Z
1[
0Q
1P
0]
0,
1+
0N
1Y
0)
1R
1-
#190000
0(
05
1'
04
13
0G
1F
0J
0I
1H
1{
0b
0_
1`
0s
1g
0m
0x
0*!
17!
0>!
0E!
1F!
1H!
1O!
0f
1r
0t
1}
0~
1&!
0'!
1)!
10!
13!
04!
16!
08!
0=!
0B!
0-!
1G!
0L!
0S!
1a!
1b!
0M!
0D!
0F!
1@!
1>!
0(!
1'!
07!
1$!
1W!
1E!
11!
0O!
0g
1*!
1I!
0a!
0K!
0G!
09!
0Z!
1P!
0<!
0b!
0P!
1X!
1(!
0+!
1\!
1G!
0I!
1I!
1]!
1+!
1Y!
0[
0Y
1]
1Z!
1^!
0P
0R
1N
0]
0-
0+
1)
0N
0)
1\
1[
1O
1P
1+
1*
#200000
1(
15
1G
1J
1_
1s
1t
1m
1x
0!!
0&!
0*!
03!
14!
17!
18!
1;!
0>!
1C!
0E!
0H!
1O!
0G!
1D!
1K!
1a!
19!
0'!
1P!
1E!
1G!
0(!
1<!
1b!
0I!
0+!
1I!
1]
1N
1)
#210000
0(
05
0'
14
0&
1%
0G
0F
0E
1D
0J
1I
1b
0_
1a
0d
0`
0s
0m
0x
1!!
1*!
07!
0;!
1>!
1H!
0t
0}
1#!
1'!
00!
04!
06!
1=!
0@!
0C!
0D!
0K!
0\!
1F!
05!
0>!
1(!
0E!
0O!
0a!
0W!
0X!
0b!
0P!
1+!
0G!
0]!
0^!
0I!
0Y!
0Z!
0]
0N
0\
0)
0O
0[
0*
0P
0+
#220000
1(
15
1G
1J
1_
1s
1~
1m
1x
0!!
0#!
0*!
01!
14!
1;!
1>!
1B!
0F!
0H!
1O!
1D!
1K!
1a!
15!
0$!
1P!
1!!
1b!
1]
1N
1)
#230000
0(
05
1'
04
03
0G
1F
0J
0I
0H
0{
0b
0_
1`
0s
0m
0x
1*!
11!
17!
0;!
0>!
1F!
1H!
0O!
1}
0~
1&!
0'!
04!
16!
08!
0B!
1C!
1-!
1L!
0P!
1S!
0a!
0b!
1M!
1E!
05!
0(!
1'!
07!
1$!
1.!
1W!
1a!
1G!
09!
1Z!
1I!
1b!
12!
1X!
1(!
0+!
0<!
1+!
1[
1Y
0]
1P
1R
0N
1W
1]
1-
1+
0)
1T
1N
1/
1)
#240000
1(
15
1G
1J
1_
1s
1t
1c
1m
1x
0!!
0&!
0*!
01!
14!
17!
18!
1;!
1>!
1@!
0C!
0E!
0F!
0H!
1O!
0G!
0D!
0K!
0a!
1A!
1\!
1]!
19!
15!
0Z!
0'!
1g
1E!
1R!
0(!
1<!
1^!
0b!
0L!
0I!
0M!
0+!
0[
1X
0P
1S
0]
1\
1Z
1.
0+
0N
1O
1Q
0Y
1,
1*
0)
0R
0-
#250000
0(
05
0'
14
1&
0G
0F
1E
0J
1I
1b
0_
1d
0`
0s
0m
0x
1!!
1*!
11!
07!
0;!
0>!
1F!
1H!
0c
1f
0}
1#!
1'!
04!
06!
0@!
0A!
0\!
0E!
05!
1(!
0.!
1a!
1G!
0]!
1Z!
0W!
0X!
0^!
1I!
1b!
02!
1+!
1[
0X
1P
0S
0W
1]
0\
0.
1+
0T
1N
0O
0/
0*
1)
#260000
1(
15
1G
1J
1_
1s
1~
0g
1m
1x
0!!
0#!
01!
14!
1;!
1>!
1B!
1E!
0F!
0H!
0G!
1D!
1K!
0a!
1]!
15!
0$!
0R!
1!!
1^!
0b!
1L!
0I!
1M!
0Z
0Q
0]
1\
0,
0N
1O
1Y
1*
0)
1R
1-
#270000
0(
05
1'
04
13
0G
1F
0J
0I
1H
1{
0b
0_
1`
0s
1g
0m
0x
11!
17!
0;!
0>!
0E!
1F!
1H!
0f
0t
1}
0~
1&!
0'!
10!
13!
04!
16!
08!
0B!
1C!
0-!
1G!
0L!
1P!
0S!
1a!
1b!
0Z!
0M!
1@!
1>!
0(!
1'!
07!
1$!
1W!
1E!
0O!
0g
1I!
0G!
0]!
09!
0<!
0^!
0I!
0P!
1G!
1X!
1(!
0+!
1\!
1]!
1+!
1Y!
1I!
0Y
0[
1]
1Z!
1^!
0R
0P
1N
0\
0-
0+
1)
0O
0*
1\
1[
1O
1P
1+
1*
#280000
1(
15
1G
1J
1_
1s
1t
1c
1m
1x
0!!
0&!
0*!
03!
14!
17!
18!
1;!
0E!
0F!
0H!
1O!
0G!
19!
0'!
1P!
1g
1E!
1G!
0(!
1<!
0I!
0+!
1I!
#290000
0(
05
0'
14
0&
0%
1$
0G
0F
0E
0D
1C
0J
1I
1b
0_
1e
0a
0d
0`
0s
0m
0x
1!!
1*!
07!
0;!
1F!
1H!
0c
0r
0t
0}
1#!
1'!
0)!
04!
06!
1:!
0@!
0C!
0D!
0\!
05!
0*!
1;!
1(!
0E!
01!
0O!
0g
0a!
0K!
0W!
0b!
0P!
0X!
0G!
1+!
0]!
0^!
0I!
0Y!
0Z!
0]
0N
0\
0)
0O
0[
0*
0P
0+
#300000
1(
15
1G
1J
1_
1s
1~
1m
1x
0!!
0#!
11!
14!
0;!
1B!
0F!
1D!
1K!
1a!
15!
0$!
1!!
1b!
1]
1N
1)
#310000
0(
05
1'
04
03
0G
1F
0J
0I
0H
0{
0b
0_
1`
0s
0m
0x
01!
17!
1;!
1F!
1f
1l
1r
1}
0~
1&!
0'!
1)!
00!
04!
16!
08!
0:!
0=!
0B!
1-!
1L!
1S!
1M!
0D!
1E!
05!
0>!
0;!
0(!
1'!
07!
1$!
1.!
1W!
11!
1m
0F!
1g
1*!
1G!
0K!
1]!
09!
1^!
0L!
1Z!
1R!
12!
1X!
1(!
0+!
0]!
0<!
0G!
1I!
0I!
0^!
1+!
0M!
1Y
1R
1W
1Z
1[
1\
1-
1T
1Q
1P
1O
0Y
0\
1/
1,
1+
1*
0R
0O
0-
0*
#320000
1(
15
1G
1J
1_
1s
1t
0g
1x
0!!
0&!
01!
14!
17!
18!
1;!
1@!
0E!
1F!
0H!
1O!
0a!
1G!
1A!
1\!
1]!
19!
15!
0'!
0R!
1E!
0(!
1<!
1^!
1I!
0b!
0+!
0Z
1X
0Q
1S
0]
1\
1.
0,
0N
1O
1*
0)
#330000
0(
05
0'
14
1&
0G
0F
1E
0J
1I
1b
0_
1d
0`
0s
1g
0x
1!!
11!
07!
0;!
0F!
1H!
0l
0r
0}
1#!
1'!
0)!
10!
04!
06!
1:!
1=!
0@!
0A!
0\!
0E!
05!
1>!
0*!
1;!
1(!
0.!
01!
0m
1F!
1a!
0G!
0]!
0W!
1R!
0^!
0I!
1b!
0X!
02!
1+!
0Z!
1G!
1]!
1^!
1I!
1Z
0X
1Q
0S
0[
0W
1]
0\
0.
1,
0P
0T
1N
0O
1\
0/
0+
0*
1)
1O
1*
#340000
1(
15
1G
1J
1_
1s
1~
0g
1m
1x
0!!
0#!
1*!
11!
14!
0;!
1B!
1E!
0F!
0O!
0G!
1D!
1K!
0]!
15!
1Z!
0$!
0R!
1!!
0^!
1L!
0I!
1M!
0Z
1[
0Q
1P
0\
0,
1+
0O
1Y
0*
1R
1-
#350000
0(
05
1'
04
13
0G
1F
0J
0I
1H
1{
0b
0_
1`
0s
1g
0m
0x
0*!
01!
17!
1;!
0E!
1F!
1O!
1l
1r
0t
1}
0~
1&!
0'!
1)!
13!
04!
16!
08!
0:!
0=!
0B!
0-!
1G!
0L!
0S!
0M!
1I!
0D!
0a!
1@!
1*!
0;!
0(!
1'!
07!
1$!
1W!
1E!
11!
0O!
1m
0F!
0K!
0G!
09!
0Z!
1P!
0P!
1G!
1X!
1(!
0<!
0+!
1\!
0b!
0I!
1]!
1+!
1Y!
1I!
0[
0Y
1Z!
1^!
0P
0R
0]
0-
0+
0N
0)
1\
1[
1O
1P
1+
1*
#360000
1(
15
1G
1J
1_
1s
1t
0g
1x
0!!
0&!
03!
14!
17!
18!
1;!
0>!
1C!
0E!
1F!
0H!
1O!
0G!
1D!
1K!
1a!
19!
0'!
1P!
1E!
1G!
0(!
1<!
1b!
0I!
0+!
1I!
1]
1N
1)
#370000
0(
05
0'
14
0&
1%
0G
0F
0E
1D
0J
1I
1b
0_
1a
0d
0`
0s
1g
0x
1!!
07!
0;!
1>!
0F!
1H!
0f
0l
0t
0}
1#!
1'!
04!
06!
1:!
1=!
0@!
0C!
0D!
0\!
1;!
05!
1(!
0E!
0O!
0m
1F!
0g
0a!
0K!
0W!
0X!
0b!
0P!
0G!
1+!
0]!
0^!
0I!
0Y!
0Z!
0]
0N
0\
0)
0O
0[
0*
0P
0+
#380000
1(
15
1G
1J
1_
1s
1~
1m
1x
0!!
0#!
0*!
14!
1B!
0F!
1O!
1D!
1K!
1a!
15!
0$!
1P!
1!!
1b!
1]
1N
1)
#390000
0(
05
1'
04
03
0G
1F
0J
0I
0H
0{
0b
0_
1`
0s
0m
0x
1*!
17!
1F!
0O!
1f
1l
1}
0~
1&!
0'!
00!
04!
16!
08!
0:!
0B!
1C!
1-!
1L!
0P!
1S!
1]!
1M!
0;!
1E!
05!
0>!
0(!
1'!
07!
1$!
1.!
1W!
1m
1g
1G!
09!
1Z!
1I!
1R!
12!
1X!
1(!
0+!
0<!
0]!
1^!
0^!
1+!
1[
1Y
1P
1R
1\
1W
1Z
1-
1+
1O
1T
1Q
0\
1/
1,
1*
0O
0*
#400000
1(
15
1G
1J
1_
1s
1t
1c
0g
1x
0!!
0&!
01!
14!
17!
18!
1;!
1>!
1@!
0C!
0E!
0H!
1O!
0D!
0K!
0a!
1A!
1\!
1]!
19!
15!
0'!
0R!
1g
1E!
1R!
0(!
1<!
1^!
0b!
0L!
0M!
0+!
0Z
1X
0Q
1S
0]
1\
1Z
1.
0,
0N
1O
1Q
0Y
1,
1*
0)
0R
0-
#410000
0(
05
0'
14
1&
0G
0F
1E
0J
1I
1b
0_
1d
0`
0s
0x
1!!
11!
07!
0;!
0>!
1H!
0c
0l
0}
1#!
1'!
10!
04!
06!
1:!
0@!
0A!
0\!
1;!
0E!
05!
1>!
1(!
0.!
0m
1a!
0]!
0W!
0X!
0^!
1b!
02!
1+!
1]!
1^!
0X
0S
0W
1]
0\
0.
0T
1N
0O
1\
0/
0*
1)
1O
1*
#420000
1(
15
1G
1J
1_
1s
1~
0g
1m
1x
0!!
0#!
14!
1B!
1E!
0F!
0G!
1D!
1K!
15!
0$!
0R!
1!!
1L!
0I!
1M!
0Z
0Q
0,
1Y
1R
1-
#430000
0(
05
1'
04
13
0G
1F
0J
0I
1H
1{
0b
0_
1`
0s
1g
0m
0x
17!
0E!
1F!
1l
0t
1}
0~
1&!
0'!
13!
04!
16!
08!
0:!
0B!
1C!
0-!
1G!
0L!
1P!
0S!
0Z!
0]!
0M!
1I!
0;!
1@!
0(!
1'!
07!
1$!
1W!
1E!
0O!
1m
0G!
09!
0I!
0P!
1G!
1X!
1(!
0+!
1\!
0<!
0^!
1]!
1+!
1Y!
1I!
0Y
0[
1Z!
1^!
0R
0P
0\
0-
0+
0O
0*
1\
1[
1O
1P
1+
1*
#440000
1(
15
1G
1J
1_
1s
1t
1c
0g
1x
0!!
0&!
03!
14!
17!
18!
1;!
0E!
0H!
1O!
0G!
19!
0'!
1P!
1g
1E!
1G!
0(!
1<!
0I!
0+!
1I!
#450000
0(
05
0'
14
0&
0%
0$
0#
1"
0G
0F
0E
0D
0C
0B
1A
0J
1I
1b
0_
1k
0i
0e
0a
0d
0`
0s
0x
1!!
07!
0;!
1H!
0c
0f
0r
0t
1v
0w
0}
1#!
1'!
0)!
00!
04!
06!
0=!
0@!
0C!
0D!
0K!
0\!
0F!
05!
0>!
1(!
0H!
1x
0E!
01!
0O!
0*!
0g
0a!
0W!
0b!
0X!
0P!
1+!
0G!
0]!
0^!
0I!
0Y!
0Z!
0]
0N
0\
0)
0O
0[
0*
0P
0+
#460000
1(
15
1G
1J
1_
1s
1~
0v
0!!
14!
1B!
1F!
1D!
1K!
1a!
15!
0x
1!!
1b!
1]
1N
1)
#470000
0(
05
1'
04
03
0G
1F
0J
0I
0H
0{
0b
0_
1`
0s
17!
0F!
0j
0l
1r
1w
1}
0#!
0'!
04!
16!
1:!
0B!
1-!
1G!
1L!
1S!
0a!
0b!
1M!
1I!
0D!
1;!
1E!
05!
0(!
1.!
1W!
1H!
11!
0m
0!!
0G!
0K!
0L!
1a!
1X!
12!
0+!
1]!
0I!
1^!
1b!
0M!
1Y
0]
1R
0N
1W
1-
0)
1T
0Y
1]
1\
1/
0R
1N
1O
0-
1*
1)
#480000
1(
15
1G
1J
1_
1s
1t
1x
1!!
1&!
01!
14!
0;!
1@!
0E!
1O!
1A!
1\!
0]!
15!
1'!
1E!
1(!
0^!
1+!
1X
1S
0\
1.
0O
0*
#490000
0(
05
0'
14
1&
0G
0F
1E
0J
1I
1b
0_
1d
0`
0s
0x
0!!
11!
1;!
1f
1j
1l
0r
1v
0w
0}
0~
1#!
0&!
04!
06!
0:!
0@!
0A!
0\!
0;!
0E!
05!
07!
0.!
0H!
1x
01!
1m
1!!
1g
1]!
0W!
1^!
1R!
0X!
0a!
02!
0]!
0^!
0b!
0X
0S
0W
1Z
1\
0.
0T
1Q
1O
0]
0\
0/
1,
1*
0N
0O
0*
0)
