2semestre/LSD/Aula 6/Parte 2/simulation/qsim/SeqShiftUnit_Demo.msim.vcd
$comment
	File created using the following command:
		vcd file SeqShiftUnit_Demo.msim.vcd -direction
$end
$date
	Tue May 19 19:26:32 2020
$end
$version
	ModelSim Version 10.5b
$end
$timescale
	1ps
$end

$scope module seqshiftunit_vhd_vec_tst $end
$var wire 1 ! clk $end
$var wire 1 " dataIn [7] $end
$var wire 1 # dataIn [6] $end
$var wire 1 $ dataIn [5] $end
$var wire 1 % dataIn [4] $end
$var wire 1 & dataIn [3] $end
$var wire 1 ' dataIn [2] $end
$var wire 1 ( dataIn [1] $end
$var wire 1 ) dataIn [0] $end
$var wire 1 * dataOut [7] $end
$var wire 1 + dataOut [6] $end
$var wire 1 , dataOut [5] $end
$var wire 1 - dataOut [4] $end
$var wire 1 . dataOut [3] $end
$var wire 1 / dataOut [2] $end
$var wire 1 0 dataOut [1] $end
$var wire 1 1 dataOut [0] $end
$var wire 1 2 dirLeft $end
$var wire 1 3 loadEn $end
$var wire 1 4 rotate $end
$var wire 1 5 shArith $end
$var wire 1 6 siLeft $end
$var wire 1 7 siRight $end

$scope module i1 $end
$var wire 1 8 gnd $end
$var wire 1 9 vcc $end
$var wire 1 : unknown $end
$var wire 1 ; devoe $end
$var wire 1 < devclrn $end
$var wire 1 = devpor $end
$var wire 1 > ww_devoe $end
$var wire 1 ? ww_devclrn $end
$var wire 1 @ ww_devpor $end
$var wire 1 A ww_clk $end
$var wire 1 B ww_dataIn [7] $end
$var wire 1 C ww_dataIn [6] $end
$var wire 1 D ww_dataIn [5] $end
$var wire 1 E ww_dataIn [4] $end
$var wire 1 F ww_dataIn [3] $end
$var wire 1 G ww_dataIn [2] $end
$var wire 1 H ww_dataIn [1] $end
$var wire 1 I ww_dataIn [0] $end
$var wire 1 J ww_siLeft $end
$var wire 1 K ww_siRight $end
$var wire 1 L ww_loadEn $end
$var wire 1 M ww_rotate $end
$var wire 1 N ww_dirLeft $end
$var wire 1 O ww_shArith $end
$var wire 1 P ww_dataOut [7] $end
$var wire 1 Q ww_dataOut [6] $end
$var wire 1 R ww_dataOut [5] $end
$var wire 1 S ww_dataOut [4] $end
$var wire 1 T ww_dataOut [3] $end
$var wire 1 U ww_dataOut [2] $end
$var wire 1 V ww_dataOut [1] $end
$var wire 1 W ww_dataOut [0] $end
$var wire 1 X \dataOut[0]~output_o\ $end
$var wire 1 Y \dataOut[1]~output_o\ $end
$var wire 1 Z \dataOut[2]~output_o\ $end
$var wire 1 [ \dataOut[3]~output_o\ $end
$var wire 1 \ \dataOut[4]~output_o\ $end
$var wire 1 ] \dataOut[5]~output_o\ $end
$var wire 1 ^ \dataOut[6]~output_o\ $end
$var wire 1 _ \dataOut[7]~output_o\ $end
$var wire 1 ` \clk~input_o\ $end
$var wire 1 a \dirLeft~input_o\ $end
$var wire 1 b \rotate~input_o\ $end
$var wire 1 c \siRight~input_o\ $end
$var wire 1 d \shArith~input_o\ $end
$var wire 1 e \s_shiftReg[7]~9_combout\ $end
$var wire 1 f \s_shiftReg[7]~10_combout\ $end
$var wire 1 g \s_shiftReg[7]~7_combout\ $end
$var wire 1 h \dataIn[7]~input_o\ $end
$var wire 1 i \loadEn~input_o\ $end
$var wire 1 j \s_shiftReg[6]~6_combout\ $end
$var wire 1 k \dataIn[6]~input_o\ $end
$var wire 1 l \s_shiftReg[5]~5_combout\ $end
$var wire 1 m \dataIn[5]~input_o\ $end
$var wire 1 n \s_shiftReg[4]~4_combout\ $end
$var wire 1 o \dataIn[4]~input_o\ $end
$var wire 1 p \s_shiftReg[3]~3_combout\ $end
$var wire 1 q \dataIn[3]~input_o\ $end
$var wire 1 r \s_shiftReg[2]~2_combout\ $end
$var wire 1 s \dataIn[2]~input_o\ $end
$var wire 1 t \s_shiftReg[1]~1_combout\ $end
$var wire 1 u \dataIn[1]~input_o\ $end
$var wire 1 v \siLeft~input_o\ $end
$var wire 1 w \s_shiftReg~8_combout\ $end
$var wire 1 x \s_shiftReg[0]~0_combout\ $end
$var wire 1 y \dataIn[0]~input_o\ $end
$var wire 1 z s_shiftReg [7] $end
$var wire 1 { s_shiftReg [6] $end
$var wire 1 | s_shiftReg [5] $end
$var wire 1 } s_shiftReg [4] $end
$var wire 1 ~ s_shiftReg [3] $end
$var wire 1 !! s_shiftReg [2] $end
$var wire 1 "! s_shiftReg [1] $end
$var wire 1 #! s_shiftReg [0] $end
$var wire 1 $! \ALT_INV_clk~input_o\ $end
$upscope $end
$upscope $end
$enddefinitions $end
#0
$dumpvars
0!
02
03
04
05
06
07
08
19
x:
1;
1<
1=
1>
1?
1@
0A
0J
0K
0L
0M
0N
0O
0X
0Y
0Z
0[
0\
0]
0^
0_
0`
0a
0b
0c
0d
0e
1f
0g
0h
0i
0j
0k
0l
0m
0n
0o
0p
0q
0r
0s
0t
0u
0v
0w
0x
0y
1$!
0"
0#
0$
0%
0&
0'
0(
0)
0B
0C
0D
0E
0F
0G
0H
0I
0P
0Q
0R
0S
0T
0U
0V
0W
0z
0{
0|
0}
0~
0!!
0"!
0#!
0*
0+
0,
0-
0.
0/
00
01
$end
#50000
1!
1"
1#
1$
1%
1&
1'
1(
1)
1A
1I
1H
1G
1F
1E
1D
1C
1B
1h
1k
1m
1o
1q
1s
1u
1y
1`
0$!
#95000
12
1N
1a
#100000
0!
0"
0#
0$
0%
0&
0'
0(
0)
14
0A
0I
0H
0G
0F
0E
0D
0C
0B
1M
1b
0h
0k
0m
0o
0q
0s
0u
0y
0`
1$!
1e
0f
#135000
15
1O
1d
#150000
1!
1"
1#
1$
1%
1&
1'
1(
1)
16
1A
1I
1H
1G
1F
1E
1D
1C
1B
1J
1v
1h
1k
1m
1o
1q
1s
1u
1y
1`
0$!
#190000
02
0N
0a
#200000
0!
0"
0#
0$
0%
0&
0'
0(
0)
04
0A
0I
0H
0G
0F
0E
0D
0C
0B
0M
0b
0h
0k
0m
0o
0q
0s
0u
0y
0`
1$!
0e
1f
#250000
1!
1"
1#
1$
1%
1&
1'
1(
1)
1A
1I
1H
1G
1F
1E
1D
1C
1B
1h
1k
1m
1o
1q
1s
1u
1y
1`
0$!
#270000
05
0O
0d
1w
#285000
12
1N
1a
1x
#300000
0!
0"
0#
0$
0%
0&
0'
0(
0)
14
06
0A
0I
0H
0G
0F
0E
0D
0C
0B
1M
0J
0v
1b
0h
0k
0m
0o
0q
0s
0u
0y
0`
1$!
1e
0f
0w
1#!
0x
1f
1t
1X
1W
11
#350000
1!
1"
1#
1$
1%
1&
1'
1(
1)
1A
1I
1H
1G
1F
1E
1D
1C
1B
1h
1k
1m
1o
1q
1s
1u
1y
1`
0$!
#380000
02
0N
0a
1g
0t
#400000
0!
0"
0#
0$
0%
0&
0'
0(
0)
04
0A
0I
0H
0G
0F
0E
0D
0C
0B
0M
0b
0h
0k
0m
0o
0q
0s
0u
0y
0`
1$!
0e
1z
0#!
0g
1j
0X
1_
0W
1P
01
1*
#405000
15
1O
1d
1e
1g
#450000
1!
1"
1#
1$
1%
1&
1'
1(
1)
16
1A
1I
1H
1G
1F
1E
1D
1C
1B
1J
1v
1h
1k
1m
1o
1q
1s
1u
1y
1`
0$!
#475000
12
1N
1a
0g
0j
#500000
0!
0"
0#
0$
0%
0&
0'
0(
0)
14
13
0A
0I
0H
0G
0F
0E
0D
0C
0B
1M
1L
1i
1b
0h
0k
0m
0o
0q
0s
0u
0y
0`
1$!
0f
1w
0z
1x
0w
0x
0_
0P
0*
#540000
05
0O
0d
#550000
1!
1"
1#
1$
1%
1&
1'
1(
1)
1A
1I
1H
1G
1F
1E
1D
1C
1B
1h
1k
1m
1o
1q
1s
1u
1y
1`
0$!
#570000
02
0N
0a
#600000
0!
0"
0#
0$
0%
0&
0'
0(
0)
04
06
0A
0I
0H
0G
0F
0E
0D
0C
0B
0M
0J
0v
0b
0h
0k
0m
0o
0q
0s
0u
0y
0`
1$!
0e
1f
#650000
1!
1"
1#
1$
1%
1&
1'
1(
1)
1A
1I
1H
1G
1F
1E
1D
1C
1B
1h
1k
1m
1o
1q
1s
1u
1y
1`
0$!
#665000
12
1N
1a
#675000
15
1O
1d
#700000
0!
0"
0#
0$
0%
0&
0'
0(
0)
14
0A
0I
0H
0G
0F
0E
0D
0C
0B
1M
1b
0h
0k
0m
0o
0q
0s
0u
0y
0`
1$!
1e
0f
#750000
1!
1"
1#
1$
1%
1&
1'
1(
1)
16
1A
1I
1H
1G
1F
1E
1D
1C
1B
1J
1v
1h
1k
1m
1o
1q
1s
1u
1y
1`
0$!
#760000
02
0N
0a
#800000
0!
0"
0#
0$
0%
0&
0'
0(
0)
04
0A
0I
0H
0G
0F
0E
0D
0C
0B
0M
0b
0h
0k
0m
0o
0q
0s
0u
0y
0`
1$!
0e
1f
#810000
05
0O
0d
1w
#850000
1!
1"
1#
1$
1%
1&
1'
1(
1)
1A
1I
1H
1G
1F
1E
1D
1C
1B
1h
1k
1m
1o
1q
1s
1u
1y
1`
0$!
#855000
12
1N
1a
1x
#900000
0!
0"
0#
0$
0%
0&
0'
0(
0)
14
06
0A
0I
0H
0G
0F
0E
0D
0C
0B
1M
0J
0v
1b
0h
0k
0m
0o
0q
0s
0u
0y
0`
1$!
1e
0f
0w
0x
#945000
15
1O
1d
#950000
1!
1"
1#
1$
1%
1&
1'
1(
1)
02
1A
1I
1H
1G
1F
1E
1D
1C
1B
0N
0a
1h
1k
1m
1o
1q
1s
1u
1y
1`
0$!
