2semestre/LSD/Aula 3/Parte 4/simulation/qsim/ALUDemo.msim.vcd
$comment
	File created using the following command:
		vcd file ALUDemo.msim.vcd -direction
$end
$date
	Wed Mar 18 12:38:03 2020
$end
$version
	ModelSim Version 10.5b
$end
$timescale
	1ps
$end

$scope module alu4_vhd_vec_tst $end
$var wire 1 ! a [3] $end
$var wire 1 " a [2] $end
$var wire 1 # a [1] $end
$var wire 1 $ a [0] $end
$var wire 1 % b [3] $end
$var wire 1 & b [2] $end
$var wire 1 ' b [1] $end
$var wire 1 ( b [0] $end
$var wire 1 ) m [3] $end
$var wire 1 * m [2] $end
$var wire 1 + m [1] $end
$var wire 1 , m [0] $end
$var wire 1 - op [2] $end
$var wire 1 . op [1] $end
$var wire 1 / op [0] $end
$var wire 1 0 r [3] $end
$var wire 1 1 r [2] $end
$var wire 1 2 r [1] $end
$var wire 1 3 r [0] $end

$scope module i1 $end
$var wire 1 4 gnd $end
$var wire 1 5 vcc $end
$var wire 1 6 unknown $end
$var wire 1 7 devoe $end
$var wire 1 8 devclrn $end
$var wire 1 9 devpor $end
$var wire 1 : ww_devoe $end
$var wire 1 ; ww_devclrn $end
$var wire 1 < ww_devpor $end
$var wire 1 = ww_a [3] $end
$var wire 1 > ww_a [2] $end
$var wire 1 ? ww_a [1] $end
$var wire 1 @ ww_a [0] $end
$var wire 1 A ww_b [3] $end
$var wire 1 B ww_b [2] $end
$var wire 1 C ww_b [1] $end
$var wire 1 D ww_b [0] $end
$var wire 1 E ww_op [2] $end
$var wire 1 F ww_op [1] $end
$var wire 1 G ww_op [0] $end
$var wire 1 H ww_r [3] $end
$var wire 1 I ww_r [2] $end
$var wire 1 J ww_r [1] $end
$var wire 1 K ww_r [0] $end
$var wire 1 L ww_m [3] $end
$var wire 1 M ww_m [2] $end
$var wire 1 N ww_m [1] $end
$var wire 1 O ww_m [0] $end
$var wire 1 P \r[0]~output_o\ $end
$var wire 1 Q \r[1]~output_o\ $end
$var wire 1 R \r[2]~output_o\ $end
$var wire 1 S \r[3]~output_o\ $end
$var wire 1 T \m[0]~output_o\ $end
$var wire 1 U \m[1]~output_o\ $end
$var wire 1 V \m[2]~output_o\ $end
$var wire 1 W \m[3]~output_o\ $end
$var wire 1 X \b[0]~input_o\ $end
$var wire 1 Y \op[1]~input_o\ $end
$var wire 1 Z \a[0]~input_o\ $end
$var wire 1 [ \Mod0|auto_generated|divider|divider|add_sub_3_result_int[0]~0_combout\ $end
$var wire 1 \ \b[3]~input_o\ $end
$var wire 1 ] \a[2]~input_o\ $end
$var wire 1 ^ \b[1]~input_o\ $end
$var wire 1 _ \Mod0|auto_generated|divider|divider|StageOut[5]~0_combout\ $end
$var wire 1 ` \a[3]~input_o\ $end
$var wire 1 a \b[2]~input_o\ $end
$var wire 1 b \Mod0|auto_generated|divider|divider|StageOut[5]~1_combout\ $end
$var wire 1 c \Mod0|auto_generated|divider|divider|selnose[5]~0_combout\ $end
$var wire 1 d \Mod0|auto_generated|divider|divider|StageOut[4]~2_combout\ $end
$var wire 1 e \a[1]~input_o\ $end
$var wire 1 f \Mod0|auto_generated|divider|divider|add_sub_2_result_int[0]~1\ $end
$var wire 1 g \Mod0|auto_generated|divider|divider|add_sub_2_result_int[1]~3\ $end
$var wire 1 h \Mod0|auto_generated|divider|divider|add_sub_2_result_int[2]~5\ $end
$var wire 1 i \Mod0|auto_generated|divider|divider|add_sub_2_result_int[3]~6_combout\ $end
$var wire 1 j \Mod0|auto_generated|divider|divider|add_sub_2_result_int[2]~4_combout\ $end
$var wire 1 k \Mod0|auto_generated|divider|divider|StageOut[10]~3_combout\ $end
$var wire 1 l \Mod0|auto_generated|divider|divider|add_sub_2_result_int[1]~2_combout\ $end
$var wire 1 m \Mod0|auto_generated|divider|divider|StageOut[9]~4_combout\ $end
$var wire 1 n \Mod0|auto_generated|divider|divider|add_sub_2_result_int[0]~0_combout\ $end
$var wire 1 o \Mod0|auto_generated|divider|divider|StageOut[8]~5_combout\ $end
$var wire 1 p \Mod0|auto_generated|divider|divider|add_sub_3_result_int[0]~1\ $end
$var wire 1 q \Mod0|auto_generated|divider|divider|add_sub_3_result_int[1]~3\ $end
$var wire 1 r \Mod0|auto_generated|divider|divider|add_sub_3_result_int[2]~5\ $end
$var wire 1 s \Mod0|auto_generated|divider|divider|add_sub_3_result_int[3]~7\ $end
$var wire 1 t \Mod0|auto_generated|divider|divider|add_sub_3_result_int[4]~8_combout\ $end
$var wire 1 u \op[0]~input_o\ $end
$var wire 1 v \Mux3~0_combout\ $end
$var wire 1 w \Mux3~1_combout\ $end
$var wire 1 x \Mux3~2_combout\ $end
$var wire 1 y \Add0~0_combout\ $end
$var wire 1 z \Add0~2_cout\ $end
$var wire 1 { \Add0~3_combout\ $end
$var wire 1 | \op[2]~input_o\ $end
$var wire 1 } \Mux3~4_combout\ $end
$var wire 1 ~ \Mult0|auto_generated|op_3~0_combout\ $end
$var wire 1 !! \Mux3~3_combout\ $end
$var wire 1 "! \Mux3~5_combout\ $end
$var wire 1 #! \Div0|auto_generated|divider|divider|add_sub_2_result_int[0]~1\ $end
$var wire 1 $! \Div0|auto_generated|divider|divider|add_sub_2_result_int[1]~3\ $end
$var wire 1 %! \Div0|auto_generated|divider|divider|add_sub_2_result_int[2]~5\ $end
$var wire 1 &! \Div0|auto_generated|divider|divider|add_sub_2_result_int[3]~6_combout\ $end
$var wire 1 '! \Div0|auto_generated|divider|divider|add_sub_2_result_int[2]~4_combout\ $end
$var wire 1 (! \Div0|auto_generated|divider|divider|StageOut[10]~0_combout\ $end
$var wire 1 )! \Div0|auto_generated|divider|divider|add_sub_2_result_int[1]~2_combout\ $end
$var wire 1 *! \Div0|auto_generated|divider|divider|StageOut[9]~1_combout\ $end
$var wire 1 +! \Div0|auto_generated|divider|divider|add_sub_2_result_int[0]~0_combout\ $end
$var wire 1 ,! \Div0|auto_generated|divider|divider|StageOut[8]~2_combout\ $end
$var wire 1 -! \Div0|auto_generated|divider|divider|add_sub_3_result_int[0]~1_cout\ $end
$var wire 1 .! \Div0|auto_generated|divider|divider|add_sub_3_result_int[1]~3_cout\ $end
$var wire 1 /! \Div0|auto_generated|divider|divider|add_sub_3_result_int[2]~5_cout\ $end
$var wire 1 0! \Div0|auto_generated|divider|divider|add_sub_3_result_int[3]~7_cout\ $end
$var wire 1 1! \Div0|auto_generated|divider|divider|add_sub_3_result_int[4]~8_combout\ $end
$var wire 1 2! \Mux3~6_combout\ $end
$var wire 1 3! \Add0~5_combout\ $end
$var wire 1 4! \Add0~4\ $end
$var wire 1 5! \Add0~6_combout\ $end
$var wire 1 6! \Mod0|auto_generated|divider|divider|add_sub_3_result_int[1]~2_combout\ $end
$var wire 1 7! \Mod0|auto_generated|divider|divider|StageOut[13]~6_combout\ $end
$var wire 1 8! \Mux2~2_combout\ $end
$var wire 1 9! \Mux2~3_combout\ $end
$var wire 1 :! \Mux2~0_combout\ $end
$var wire 1 ;! \Mult0|auto_generated|op_3~1\ $end
$var wire 1 <! \Mult0|auto_generated|op_3~2_combout\ $end
$var wire 1 =! \Mux2~1_combout\ $end
$var wire 1 >! \Mod0|auto_generated|divider|divider|selnose[5]~1_combout\ $end
$var wire 1 ?! \Add0~8_combout\ $end
$var wire 1 @! \Add0~7\ $end
$var wire 1 A! \Add0~9_combout\ $end
$var wire 1 B! \Mult0|auto_generated|op_1~0_combout\ $end
$var wire 1 C! \Mult0|auto_generated|op_3~3\ $end
$var wire 1 D! \Mult0|auto_generated|op_3~4_combout\ $end
$var wire 1 E! \Mux1~0_combout\ $end
$var wire 1 F! \Mux1~2_combout\ $end
$var wire 1 G! \Mod0|auto_generated|divider|divider|add_sub_3_result_int[2]~4_combout\ $end
$var wire 1 H! \Mod0|auto_generated|divider|divider|StageOut[14]~7_combout\ $end
$var wire 1 I! \Mux1~3_combout\ $end
$var wire 1 J! \Mux1~1_combout\ $end
$var wire 1 K! \Mult0|auto_generated|cs2a[1]~0_combout\ $end
$var wire 1 L! \Mult0|auto_generated|op_1~1\ $end
$var wire 1 M! \Mult0|auto_generated|op_1~2_combout\ $end
$var wire 1 N! \Mult0|auto_generated|op_3~5\ $end
$var wire 1 O! \Mult0|auto_generated|op_3~6_combout\ $end
$var wire 1 P! \Mod0|auto_generated|divider|divider|selnose[0]~2_combout\ $end
$var wire 1 Q! \Mux0~2_combout\ $end
$var wire 1 R! \Mod0|auto_generated|divider|divider|add_sub_3_result_int[3]~6_combout\ $end
$var wire 1 S! \Mod0|auto_generated|divider|divider|StageOut[15]~8_combout\ $end
$var wire 1 T! \Mux0~3_combout\ $end
$var wire 1 U! \Add0~11_combout\ $end
$var wire 1 V! \Add0~10\ $end
$var wire 1 W! \Add0~12_combout\ $end
$var wire 1 X! \Mux0~0_combout\ $end
$var wire 1 Y! \Mux0~1_combout\ $end
$var wire 1 Z! \Mult0|auto_generated|op_1~3\ $end
$var wire 1 [! \Mult0|auto_generated|op_1~4_combout\ $end
$var wire 1 \! \Mult0|auto_generated|op_3~7\ $end
$var wire 1 ]! \Mult0|auto_generated|op_3~8_combout\ $end
$var wire 1 ^! \m~8_combout\ $end
$var wire 1 _! \Mult0|auto_generated|op_1~5\ $end
$var wire 1 `! \Mult0|auto_generated|op_1~6_combout\ $end
$var wire 1 a! \Mult0|auto_generated|op_3~9\ $end
$var wire 1 b! \Mult0|auto_generated|op_3~10_combout\ $end
$var wire 1 c! \m~9_combout\ $end
$var wire 1 d! \Mult0|auto_generated|op_1~7\ $end
$var wire 1 e! \Mult0|auto_generated|op_1~8_combout\ $end
$var wire 1 f! \Mult0|auto_generated|op_3~11\ $end
$var wire 1 g! \Mult0|auto_generated|op_3~12_combout\ $end
$var wire 1 h! \m~10_combout\ $end
$var wire 1 i! \Mult0|auto_generated|op_1~9\ $end
$var wire 1 j! \Mult0|auto_generated|op_1~10_combout\ $end
$var wire 1 k! \Mult0|auto_generated|op_3~13\ $end
$var wire 1 l! \Mult0|auto_generated|op_3~14_combout\ $end
$var wire 1 m! \m~11_combout\ $end
$var wire 1 n! \Mult0|auto_generated|le3a\ [5] $end
$var wire 1 o! \Mult0|auto_generated|le3a\ [4] $end
$var wire 1 p! \Mult0|auto_generated|le3a\ [3] $end
$var wire 1 q! \Mult0|auto_generated|le3a\ [2] $end
$var wire 1 r! \Mult0|auto_generated|le3a\ [1] $end
$var wire 1 s! \Mult0|auto_generated|le3a\ [0] $end
$var wire 1 t! \Div0|auto_generated|divider|divider|selnose\ [19] $end
$var wire 1 u! \Div0|auto_generated|divider|divider|selnose\ [18] $end
$var wire 1 v! \Div0|auto_generated|divider|divider|selnose\ [17] $end
$var wire 1 w! \Div0|auto_generated|divider|divider|selnose\ [16] $end
$var wire 1 x! \Div0|auto_generated|divider|divider|selnose\ [15] $end
$var wire 1 y! \Div0|auto_generated|divider|divider|selnose\ [14] $end
$var wire 1 z! \Div0|auto_generated|divider|divider|selnose\ [13] $end
$var wire 1 {! \Div0|auto_generated|divider|divider|selnose\ [12] $end
$var wire 1 |! \Div0|auto_generated|divider|divider|selnose\ [11] $end
$var wire 1 }! \Div0|auto_generated|divider|divider|selnose\ [10] $end
$var wire 1 ~! \Div0|auto_generated|divider|divider|selnose\ [9] $end
$var wire 1 !" \Div0|auto_generated|divider|divider|selnose\ [8] $end
$var wire 1 "" \Div0|auto_generated|divider|divider|selnose\ [7] $end
$var wire 1 #" \Div0|auto_generated|divider|divider|selnose\ [6] $end
$var wire 1 $" \Div0|auto_generated|divider|divider|selnose\ [5] $end
$var wire 1 %" \Div0|auto_generated|divider|divider|selnose\ [4] $end
$var wire 1 &" \Div0|auto_generated|divider|divider|selnose\ [3] $end
$var wire 1 '" \Div0|auto_generated|divider|divider|selnose\ [2] $end
$var wire 1 (" \Div0|auto_generated|divider|divider|selnose\ [1] $end
$var wire 1 )" \Div0|auto_generated|divider|divider|selnose\ [0] $end
$var wire 1 *" \Mod0|auto_generated|divider|divider|selnose\ [19] $end
$var wire 1 +" \Mod0|auto_generated|divider|divider|selnose\ [18] $end
$var wire 1 ," \Mod0|auto_generated|divider|divider|selnose\ [17] $end
$var wire 1 -" \Mod0|auto_generated|divider|divider|selnose\ [16] $end
$var wire 1 ." \Mod0|auto_generated|divider|divider|selnose\ [15] $end
$var wire 1 /" \Mod0|auto_generated|divider|divider|selnose\ [14] $end
$var wire 1 0" \Mod0|auto_generated|divider|divider|selnose\ [13] $end
$var wire 1 1" \Mod0|auto_generated|divider|divider|selnose\ [12] $end
$var wire 1 2" \Mod0|auto_generated|divider|divider|selnose\ [11] $end
$var wire 1 3" \Mod0|auto_generated|divider|divider|selnose\ [10] $end
$var wire 1 4" \Mod0|auto_generated|divider|divider|selnose\ [9] $end
$var wire 1 5" \Mod0|auto_generated|divider|divider|selnose\ [8] $end
$var wire 1 6" \Mod0|auto_generated|divider|divider|selnose\ [7] $end
$var wire 1 7" \Mod0|auto_generated|divider|divider|selnose\ [6] $end
$var wire 1 8" \Mod0|auto_generated|divider|divider|selnose\ [5] $end
$var wire 1 9" \Mod0|auto_generated|divider|divider|selnose\ [4] $end
$var wire 1 :" \Mod0|auto_generated|divider|divider|selnose\ [3] $end
$var wire 1 ;" \Mod0|auto_generated|divider|divider|selnose\ [2] $end
$var wire 1 <" \Mod0|auto_generated|divider|divider|selnose\ [1] $end
$var wire 1 =" \Mod0|auto_generated|divider|divider|selnose\ [0] $end
$var wire 1 >" \Mult0|auto_generated|le4a\ [5] $end
$var wire 1 ?" \Mult0|auto_generated|le4a\ [4] $end
$var wire 1 @" \Mult0|auto_generated|le4a\ [3] $end
$var wire 1 A" \Mult0|auto_generated|le4a\ [2] $end
$var wire 1 B" \Mult0|auto_generated|le4a\ [1] $end
$var wire 1 C" \Mult0|auto_generated|le4a\ [0] $end
$var wire 1 D" \Mult0|auto_generated|le5a\ [4] $end
$var wire 1 E" \Mult0|auto_generated|le5a\ [3] $end
$var wire 1 F" \Mult0|auto_generated|le5a\ [2] $end
$var wire 1 G" \Mult0|auto_generated|le5a\ [1] $end
$var wire 1 H" \Mult0|auto_generated|le5a\ [0] $end
$upscope $end
$upscope $end
$enddefinitions $end
#0
$dumpvars
04
15
x6
17
18
19
1:
1;
1<
1P
1Q
1R
1S
0T
0U
0V
0W
1X
1Y
1Z
0[
0\
1]
0^
0_
1`
0a
0b
0c
0d
1e
1f
0g
1h
0i
0j
0k
0l
0m
0n
0o
1p
0q
1r
0s
0t
1u
1v
1w
0x
0y
1z
0{
0|
1}
1~
1!!
1"!
1#!
0$!
1%!
0&!
0'!
0(!
0)!
0*!
0+!
0,!
1-!
0.!
1/!
00!
01!
12!
13!
04!
15!
06!
07!
18!
19!
1:!
0;!
1<!
1=!
0>!
1?!
1@!
1A!
1B!
1C!
1D!
1E!
1F!
0G!
0H!
1I!
1J!
0K!
0L!
1M!
0N!
1O!
1P!
1Q!
0R!
0S!
1T!
1U!
0V!
1W!
1X!
1Y!
1Z!
0[!
1\!
0]!
0^!
0_!
0`!
0a!
0b!
0c!
1d!
0e!
1f!
0g!
0h!
0i!
1j!
0k!
0l!
0m!
1!
1"
1#
1$
0%
0&
0'
1(
0-
1.
1/
10
11
12
13
0)
0*
0+
0,
1=
1>
1?
1@
0A
0B
0C
1D
0E
1F
1G
1H
1I
1J
1K
0L
0M
0N
0O
0n!
0o!
1p!
1q!
1r!
1s!
xt!
xu!
xv!
xw!
xx!
xy!
xz!
x{!
x|!
0}!
x~!
x!"
x""
x#"
x$"
x%"
x&"
x'"
x("
x)"
x*"
x+"
x,"
x-"
x."
x/"
x0"
x1"
x2"
x3"
x4"
x5"
x6"
x7"
x8"
x9"
x:"
x;"
x<"
0="
0>"
0?"
0@"
0A"
0B"
0C"
xD"
0E"
0F"
0G"
0H"
$end
#30000
0!
0"
0>
0=
0`
0]
1>!
0A!
0q!
0F!
0p!
1="
0Q!
0W!
0T!
0Y!
0M!
0I!
0B!
0J!
0D!
0O!
0R
0S
0I
0H
01
00
#40000
1%
1A
1\
1c
1o
1R!
1s
1,!
10!
1}!
1C"
1>"
0P!
1Q!
0U!
1H"
1G"
1?"
1e!
1`!
1]!
1W!
1T!
1B!
1@"
0j!
1D!
0=!
11!
1t
1S!
16!
17!
0S!
02!
1l!
0`!
0d!
0D!
1N!
1b!
1g!
1O!
0e!
1i!
0b!
0Q
1j!
0g!
0J
0P
02
0l!
0K
03
#70000
0.
0/
0G
0F
0Y
0u
1y
0z
03!
0?!
1U!
1x
0}
0!!
1F!
0T!
1J!
0"!
1=!
0E!
1Y!
12!
0W!
1A!
1V!
05!
0:!
1W!
1E!
0X!
0J!
02!
0Y!
1J!
1X!
0=!
1P
1S
1Q
1R
1Y!
1K
1H
1J
1I
0P
0R
13
12
11
10
0K
0I
0Q
1R
0S
03
01
0J
1I
0H
1S
02
11
00
1H
10
#80000
1'
1C
1^
1_
1l
1g
06!
0s!
0~
1;!
1)!
1$!
13!
0r!
0C"
1q!
1K!
1p!
1o!
1n!
1b!
1g!
1l!
1[!
1M!
1A"
0B!
1L!
1D!
0N!
15!
1'!
0%!
1~
0;!
1j
0h
1i
0<!
1&!
1:!
0M!
0Z!
0D!
0[!
1_!
0]!
1a!
0b!
0f!
1`!
1]!
0a!
1[!
0O!
1=!
0]!
1a!
0g!
1k!
0l!
1b!
1Q
1J
12
#90000
1!
1"
1>
1=
1`
1]
0_
1d
0A!
0V!
0q!
0A"
1F"
1b
0p!
0W!
0@"
1E"
0j!
0`!
0X!
1M!
1Z!
0j
1h
1k
0'!
1%!
1(!
1e!
0[!
1B!
0L!
1W!
0E!
0l
0g
1m
0)!
0$!
1*!
1'!
1G!
1H!
1j
0J!
1X!
0M!
1D!
1]!
0a!
1g!
00!
0&!
0R!
0s
1S!
0i
1[!
0_!
1O!
0Y!
0b!
1l!
1`!
1d!
0]!
1a!
1T!
0t
01!
1b!
1f!
0O!
1Y!
1I!
0g!
0v
07!
0S!
0e!
0f!
0S
0R
0T!
09!
0w
0H
0I
1S
01
00
0x
1H
10
#105000
1/
1G
1u
1v
0y
1z
03!
19!
1?!
0F!
1T!
0U!
0W!
0I!
1A!
05!
1w
1x
0:!
1E!
0X!
0Y!
1J!
0=!
0Q
1R
0S
0J
1I
0H
02
11
00
#120000
0%
1&
0(
0D
1B
0A
0\
1a
0X
1[
1n
0w
1y
1s!
1+!
0o!
0j
0G!
0'!
0?!
1F!
0K!
0m
0o
1R!
0*!
0,!
0}!
1C"
0Q!
1U!
0?"
1e!
0i!
1W!
0T!
0D!
1N!
1.!
0/!
1S!
16!
1q
1G!
0r
1I!
0A!
0(!
0H!
0k
0[!
1,!
0~
1;!
1{
0x
1o
06!
0q
1<!
1"!
0.!
1]!
0a!
1s
1H!
0G!
17!
10!
1O!
0E!
1X!
1j!
1g!
0l!
0J!
1Y!
11!
0H!
1t
0b!
12!
1G!
07!
17!
0S!
1P
1S
0R
1K
1H
0I
13
01
10
#140000
0/
1-
0G
1E
1|
0u
1w
0y
0z
13!
1?!
0I!
1Q!
0U!
1!!
0"!
02!
1:!
0X!
0W!
1A!
15!
14!
1x
05!
0Y!
1=!
12!
0P
0K
1P
1Q
0S
03
1K
1J
0H
13
12
00
#150000
0!
0"
0#
0$
0@
0?
0>
0=
0`
0]
0e
0Z
0[
0v
0{
0H"
0n
0+!
15!
0@!
1r!
1B"
0G"
0d
0A!
1q!
1A"
0F"
0b
1p!
1W!
1o!
1@"
1?"
0E"
0j!
1M!
1j
0h
1'!
0%!
1_!
0B!
1L!
1l
1g
1)!
1$!
0O!
0\!
0<!
0C!
1A!
1V!
0,!
0o
0]!
0w
0x
16!
1q
07!
1.!
0W!
1]!
0'!
1*!
0j
1m
0M!
0Z!
0`!
0d!
1&!
1(!
1i
1k
1O!
1l!
0R!
0s
1S!
0m
00!
0*!
1}!
0e!
1i!
1b!
1f!
1[!
0O!
1H!
0k
0(!
09!
02!
0:!
10!
1R!
1s
1I!
0]!
1a!
1j!
0k!
01!
0G!
0H!
1T!
0t
0S!
0T!
17!
1X!
0I!
0b!
0f!
1J!
1t
1S!
11!
0=!
0P
1T!
07!
0S!
0g!
1k!
0J!
1Y!
19!
0X!
0K
03
0Y!
1:!
0l!
0T!
09!
1X!
0Q
1R
1Y!
0:!
0X!
1=!
0J
1I
1S
0R
02
11
0Y!
0=!
1H
0I
0S
01
10
0H
1Q
1S
00
1J
1H
0Q
0S
12
10
0J
0H
02
00
#160000
1(
1D
1X
1[
0p
1_
1n
0f
1y
1+!
0#!
0-!
0)!
1{
0l
06!
#180000
1#
1$
1@
1?
1e
1Z
0[
1p
1v
0{
04!
0s!
1-!
1H"
0n
1f
1o
0+!
1#!
1,!
05!
1@!
0r!
0B"
0A"
1G"
1`!
0[!
1O!
1\!
1<!
1C!
0A!
0V!
1)!
17!
1l
1]!
0.!
1~
0;!
15!
1w
0q
1G!
1x
0<!
19!
1W!
1D!
0N!
0a!
1b!
0b!
0O!
1:!
12!
1=!
1P
1K
1Q
13
1J
12
#200000
0(
0&
0'
0D
0C
0B
0a
0^
0X
1[
1n
0y
1+!
0l
0g
16!
0~
0)!
0$!
03!
0q!
0p!
0o!
0n!
0c
1j
0G!
1r
1'!
1/!
0?!
0C"
0>"
1P!
0H"
0G"
0?"
1e!
0i!
0`!
0]!
0="
0@"
0j!
0D!
1A!
1V!
00!
0R!
0s
0>!
1b!
1f!
1g!
0k!
1l!
1[!
0_!
1M!
1Z!
0L!
05!
0'!
1%!
0j
1h
1{
14!
15!
0@!
0i
0&!
0M!
0[!
1O!
1]!
0t
01!
0W!
1d!
0b!
1j!
0l!
0e!
0]!
0O!
0}!
0A!
0g!
#210000
0$
1!
1"
1/
0@
1>
1=
1G
1u
1`
1]
0Z
0[
0{
1d
1A!
1b
1W!
0v
0w
1y
1z
13!
08!
1?!
0F!
1I!
0Q!
1T!
1U!
0W!
0T!
1J!
0I!
0A!
0V!
09!
05!
1@!
04!
0x
1X!
1j
1'!
1l
1)!
1*!
1m
1(!
1k
1Y!
02!
15!
1A!
0:!
1W!
0J!
0X!
0Y!
0=!
1R!
1G!
1R
1H!
1S!
1I
0R
0P
1S
11
0I
0K
1H
0Q
0S
03
01
10
0J
0H
02
00
#240000
1$
0!
0"
1&
1'
0#
1%
1@
0?
0>
0=
1C
1B
1A
1\
1a
1^
0`
0]
0e
1Z
1[
1v
1{
0n
0+!
05!
0d
0A!
0W!
0_
0l
06!
1s!
1~
0)!
03!
1q!
1p!
1="
1o!
1n!
0j
0G!
0'!
0?!
0b
1c
0o
0R!
0,!
1}!
0P!
0U!
1H"
1]!
1W!
1.!
0S!
16!
1q
1>!
1j
0h
1'!
0%!
1A!
1V!
0(!
0H!
0k
1b!
1g!
1l!
1[!
1M!
1B!
15!
0@!
0~
1;!
07!
1l
1g
0m
1)!
1$!
0*!
0'!
0j
1<!
0A!
1D!
1O!
0]!
1a!
1R!
1s
10!
0W!
1&!
1i
0r
17!
0/!
0R!
11!
1t
1S!
0b!
0f!
0g!
1k!
07!
0S!
0l!
#245000
0/
0G
0u
1w
0y
0z
13!
18!
1?!
1F!
1Q!
1U!
1W!
1A!
05!
1@!
14!
1x
12!
15!
0@!
0A!
0V!
0W!
1A!
1V!
1W!
1P
1K
13
#270000
1!
1#
1?
1=
1`
1e
1n
1o
1+!
1,!
05!
1@!
0q!
1G"
1b
0W!
0o!
1E"
0j!
0[!
1j
1k
1'!
1(!
1`!
0B!
0A!
0V!
0.!
06!
0q
17!
19!
1G!
1W!
0D!
1b!
1R!
1S!
1]!
0a!
1l!
0b!
1T!
1:!
1=!
1X!
1Y!
1Q
1J
1S
12
1H
10
#280000
0&
0%
1(
0-
1.
1D
0B
0A
1F
0E
0|
1Y
0\
0a
1X
0[
1_
0n
1y
0s!
0+!
1q!
0p!
1o!
0j
1h
0G!
1r
0'!
1%!
1/!
0?!
1K!
0b
0c
0R!
0s
00!
1C"
1P!
0U!
0H"
0G"
0E"
0w
0x
0F!
1I!
1}
0!!
1^!
1m!
0:!
0=!
0X!
0Y!
0I!
02!
1x
1j!
0`!
0]!
0W!
1D!
01!
0t
1j
0h
1'!
0%!
1B"
1@"
1A!
1V!
0&!
0(!
1R!
0i
0k
1[!
0M!
1B!
1~
0;!
0{
04!
1b
0j
1h
0'!
1%!
15!
0<!
1"!
0D!
1N!
1]!
0R!
1m
0o
1*!
0,!
0}!
1W!
1`!
1&!
1(!
1i
1k
0v
07!
1E!
0^!
1b!
1f!
0l!
1Y!
1=!
1W
1T
0m!
1g!
0k!
1c!
1J!
1R!
0m
1o
0*!
1,!
1}!
0b!
0f!
1.!
16!
1q
1G!
0S!
1^!
0O!
0\!
0E!
12!
0=!
0&!
0i
1L
1O
0P
0S
0Q
1,
1)
0k
1m
0o
0(!
1*!
0,!
0}!
0J!
0]!
1a!
0Y!
0g!
1k!
0c!
0.!
0/!
06!
0q
17!
0r
1H!
1S!
1l!
1h!
0K
0H
0J
1Q
1S
0T
03
02
00
1m!
0l!
0h!
1b!
0^!
1.!
1/!
10!
16!
1q
07!
1r
1s
1J
1H
0O
0Q
1P
1T
1R
1U
0W
12
10
0,
1t
0R!
0s
0G!
17!
11!
00!
1c!
0m!
0J
1K
1O
1I
1N
0L
1V
0U
0S
0R
13
02
11
1,
1+
0)
01!
0t
1v
07!
0S!
1M
0N
0H
0I
0T
0V
1W
0+
1*
01
00
0v
17!
0H!
0O
0M
1L
0W
1U
0,
0*
1)
0L
1N
1+
0)
#300000
0!
0$
0@
0=
0`
0Z
1[
0p
1{
14!
1s!
0-!
0C"
0b
1c
1p!
0Q!
0W!
0@"
0`!
0T!
1M!
1j
0h
1'!
0%!
1D!
0N!
0~
1;!
05!
06!
1v
07!
1<!
0"!
1E!
1&!
1(!
1i
1k
0b!
0c!
1R!
0k
0m
1o
0(!
0*!
1,!
1}!
1J!
02!
1=!
0/!
16!
1G!
0r
0R!
1S!
0S!
1R!
1s
1H!
17!
10!
1Q
0P
1R
0U
11!
1t
1S!
1J
0K
1I
0N
03
12
11
0+
0v
0H!
0S!
#315000
1/
1G
1u
1w
0y
1z
1!!
03!
08!
1?!
1U!
1W!
0A!
0V!
09!
15!
0@!
1"!
12!
1:!
0J!
1X!
0=!
02!
1A!
1V!
0W!
1W!
0R
1P
0I
1K
0P
0Q
13
01
0K
0J
03
02
#320000
1%
0(
0D
1A
1\
0X
0[
1p
0_
1n
0x
1y
1+!
1-!
1r!
0q!
0R!
1C"
1>"
0P!
1Q!
0U!
1G"
1?"
1e!
1`!
0W!
1T!
0B"
1A"
1@"
0j!
0D!
1N!
0<!
0C!
0.!
0{
04!
06!
0q
0G!
1r
05!
1@!
1/!
1D!
1l!
0`!
0d!
0[!
1_!
1b!
1g!
1`!
1]!
0a!
0e!
1i!
0b!
0A!
0V!
1R!
1W!
1j!
0g!
0l!
#330000
1$
0#
1"
1@
0?
1>
1]
0e
1Z
1[
1v
1x
1{
0C"
1H"
0n
0o
0+!
0,!
15!
0@!
18!
0r!
1B"
0G"
1d
1A!
1q!
1F!
0p!
0A"
1F"
1e!
1[!
0_!
0M!
1I!
0B!
1L!
0l
0g
1m
0)!
0$!
1*!
0`!
1O!
1<!
1C!
19!
0A!
1.!
16!
1q
07!
0]!
1a!
0D!
0'!
1%!
1H!
0j
1h
1M!
0N!
0O!
1`!
1d!
1]!
1g!
0e!
1b!
0i
0&!
0g!
#350000
0/
0G
0u
0w
0y
0z
0!!
13!
0?!
1U!
1^!
1c!
0W!
1A!
1V!
05!
1@!
0"!
12!
0:!
0E!
1J!
0X!
14!
15!
0@!
0J!
1=!
02!
0A!
0V!
1W!
1U
1T
0W!
1A!
1V!
1N
1O
1R
1P
1,
1+
1W!
1I
1K
0P
1Q
0R
13
11
0K
1J
0I
03
12
01
#360000
0$
1&
0@
1B
1a
0Z
0[
0v
0x
0{
1r!
1j
0h
1G!
0r
1'!
0%!
0/!
1?!
0>"
0K!
0H"
0?"
1e!
0i!
0]!
1B!
0L!
0B"
0@"
0j!
0A!
0V!
1&!
0R!
1i
0<!
0C!
0=!
0W!
1l!
0`!
1O!
1\!
0M!
1N!
0^!
1j!
1g!
1h!
0l!
1]!
0a!
1Y!
0b!
1m!
0c!
1b!
1f!
1^!
0m!
0T
0Q
0g!
1c!
0O
0J
1W
1S
1V
0,
02
0h!
1L
1H
1M
0W
1T
0U
1*
1)
10
0L
1O
0N
1U
1,
0+
0)
1N
0V
1+
0M
0*
#385000
1/
0.
1G
0F
0Y
1u
1y
1z
03!
0?!
0U!
0}
08!
0Q!
0^!
0c!
0T!
09!
1:!
0Y!
1W!
1A!
1V!
05!
04!
15!
0W!
1E!
1=!
0:!
1X!
0U
0T
1Y!
0=!
1J!
0X!
1:!
0N
0O
0S
0,
0+
1=!
0Y!
0H
1Q
00
1J
1R
0Q
1S
12
1I
0J
1H
0S
1Q
02
11
10
0H
1J
12
00
#390000
1#
0"
1?
0>
0]
1e
1n
1o
1+!
1,!
05!
1@!
18!
1G"
0d
0A!
0q!
0F!
1p!
0F"
0e!
1M!
0I!
0B!
0E!
1l
1g
0m
1)!
1$!
0*!
1`!
19!
1A!
0:!
0.!
06!
0q
17!
0=!
1E!
0b!
0f!
0'!
0H!
0j
1D!
0N!
0J!
0O!
0\!
1g!
0k!
1l!
0]!
1a!
1O!
1\!
0g!
1k!
1J!
0l!
1]!
0a!
1b!
0R
0Q
0b!
0I
0J
1R
02
01
1I
11
