2semestre/LSD/Aula 4/Parte 1/simulation/qsim/FlipFlopD_Demo.msim.vcd
$comment
	File created using the following command:
		vcd file FlipFlopD_Demo.msim.vcd -direction
$end
$date
	Sun Mar 22 17:54:42 2020
$end
$version
	ModelSim Version 10.5b
$end
$timescale
	1ps
$end

$scope module flipflopd_vhd_vec_tst $end
$var wire 1 ! clk $end
$var wire 1 " d $end
$var wire 1 # q $end
$var wire 1 $ reset $end
$var wire 1 % set $end

$scope module i1 $end
$var wire 1 & gnd $end
$var wire 1 ' vcc $end
$var wire 1 ( unknown $end
$var wire 1 ) devoe $end
$var wire 1 * devclrn $end
$var wire 1 + devpor $end
$var wire 1 , ww_devoe $end
$var wire 1 - ww_devclrn $end
$var wire 1 . ww_devpor $end
$var wire 1 / ww_clk $end
$var wire 1 0 ww_d $end
$var wire 1 1 ww_set $end
$var wire 1 2 ww_reset $end
$var wire 1 3 ww_q $end
$var wire 1 4 \q~output_o\ $end
$var wire 1 5 \clk~input_o\ $end
$var wire 1 6 \reset~input_o\ $end
$var wire 1 7 \d~input_o\ $end
$var wire 1 8 \set~input_o\ $end
$var wire 1 9 \q~0_combout\ $end
$var wire 1 : \q~reg0_q\ $end
$upscope $end
$upscope $end
$enddefinitions $end
#0
$dumpvars
1!
0"
0#
1$
0%
0&
1'
x(
1)
1*
1+
1,
1-
1.
1/
00
01
12
03
04
15
16
07
08
09
0:
$end
#40000
0!
0/
05
#50000
1%
11
18
#70000
0$
02
06
19
#80000
1!
1/
15
1:
14
13
1#
#100000
0%
01
08
09
#120000
0!
1"
0/
10
17
05
19
#140000
1$
12
16
09
#150000
1%
11
18
#160000
1!
1/
15
0:
04
03
0#
#200000
0!
0%
0"
0/
01
00
07
08
05
#210000
0$
02
06
#240000
1!
1"
1/
10
17
15
19
#250000
1%
11
18
#280000
0!
1$
0/
12
16
05
09
#300000
0%
01
08
#320000
1!
0"
1/
00
07
15
#350000
1%
0$
11
02
06
18
19
#360000
0!
1"
0/
10
17
05
#400000
1!
0"
0%
1/
00
01
08
07
15
1:
09
14
13
1#
#420000
1$
12
16
#440000
0!
1"
0/
10
17
05
#450000
1%
11
18
#480000
1!
0"
1/
00
07
15
0:
04
03
0#
#490000
0$
02
06
19
#500000
0%
01
08
09
#520000
0!
0/
05
#550000
1%
11
18
19
#560000
1!
1$
1"
1/
12
10
17
16
15
1:
09
14
13
1#
#600000
0!
0%
0/
01
08
05
#630000
0$
02
06
19
#640000
1!
1/
15
#650000
1%
11
18
#680000
0!
0"
0/
00
07
05
#700000
0%
1$
01
12
16
08
09
#720000
1!
1"
1/
10
17
15
0:
04
03
0#
#750000
1%
11
18
#760000
0!
0"
0/
00
07
05
#770000
0$
02
06
19
#800000
1!
1"
0%
1/
10
01
08
17
15
1:
14
13
1#
#840000
0!
1$
0/
12
16
05
09
#850000
1%
11
18
#880000
1!
0"
1/
00
07
15
0:
04
03
0#
#900000
0%
01
08
#910000
0$
02
06
#920000
0!
0/
05
#950000
1%
11
18
19
#960000
1!
1/
15
1:
14
13
1#
#980000
1$
12
16
09
